CATEGORY,TYPE,FOOD,DESCRIPTION,UNIT OF MEASURE,IMAGE
DA FRIGO,LATTE,Latte Parzialmente scremato - Parmalat - 1lt,,Unità,Latte Parzialmente scremato - Parmalat - 1lt
DA FRIGO,LATTE,Latte scremato - Parmalat - 1lt,,Unità,Latte scremato - Parmalat - 1lt
DA FRIGO,LATTE,Latte intero - Parmalat - 1lt,,Unità,Latte intero - Parmalat - 1lt
DA FRIGO,LATTE,Latte fresco - Parmalat – bottiglia 1 lt,,Unità,Latte fresco - Parmalat – bottiglia 1 lt
DA FRIGO,LATTE,Latte senza lattosio - Zymil - bottiglia 1lt,,Unità,Latte senza lattosio - Zymil - bottiglia 1lt
DA FRIGO,LATTE,Latte microfiltrato - Zymil - bottiglia 1lt,,Unità,Latte microfiltrato - Zymil - bottiglia 1lt
DA FRIGO,LATTE,Latte intero Biologico - Centrale del latte di Roma – cartone 1 lt,,Unità,Latte intero Biologico - Centrale del latte di Roma – bottiglia 1 lt
DA FRIGO,LATTE,Latte parzialmente scremato Biologico - Centrale del latte di Roma – bottiglia 1 lt,,Unità,Latte parzialmente scremato Biologico - Centrale del latte di Roma – bottiglia 1 lt
DA FRIGO,LATTE,Latte ElleDi Senza Lattosio Gusto Pieno - Centrale del latte di Roma – cartone 1 lt,,Unità,Latte ElleDì Senza Lattosio Gusto Pieno - Centrale del latte di Roma – bottiglia 1 lt
DA FRIGO,LATTE,Latte ElleDi Senza Lattosio Gusto Delicato - Centrale del latte di Roma – cartone 1 lt,,Unità,Latte ElleDì Senza Lattosio Gusto Delicato - Centrale del latte di Roma – bottiglia 1 lt
DA FRIGO,LATTE,Latte ElleDi Senza Lattosio Magro - Centrale del latte di Roma – cartone 1 lt,,Unità,Latte ElleDì Senza Lattosio Magro - Centrale del latte di Roma – bottiglia 1 lt
DA FRIGO,LATTE,Latte Dura di piu Intero - Centrale del latte di Roma – bottiglia1 lt,,Unità,Latte Dura di più Intero - Centrale del latte di Roma – bottiglia 1 lt
DA FRIGO,LATTE,Latte Dura di piu Parzialmente scremato - Centrale del latte di Roma – bottiglia 1 lt,,Unità,Latte Dura di più Parzialmente scremato - Centrale del latte di Roma – bottiglia 1 lt
DA FRIGO,LATTE, Latte Milcon Plus - Centrale del latte di roma – cartone 1 lt,,Unità, Latte Milcon Plus - Centrale del latte di roma – bottiglia 1 lt
DA FRIGO,LATTE,Latte da definire - bottiglia 1 lt,,Unità,Latte tutti i formati
DA FRIGO,LATTE,"Latte da definire- bottiglia 1,5 lt",,Unità,Latte tutti i formati
DA FRIGO,LATTE,Latte da definire - bottiglia 2 lt,,Unità,Latte tutti i formati
DA FRIGO,LATTE,Latte da definire - cartone 1 lt,,Unità,Latte tutti i formati
DA FRIGO,LATTE,"Latte da definire - cartone 1,5 lt",,Unità,Latte tutti i formati
DA FRIGO,LATTE,Latte da definire - cartone 2  lt,,Unità,Latte tutti i formati
DA FRIGO,LATTE,Latte  parzialmente scremato -  da definire - bottiglia 1 lt,,Unità,Latte tutti i formati
DA FRIGO,LATTE,"Latte parzialmente scremato   -  da definire - bottiglia 1,5 lt",,Unità,Latte tutti i formati
DA FRIGO,LATTE,Latte parzialmente scremato -  da definire   - bottiglia 2 lt,,Unità,Latte tutti i formati
DA FRIGO,LATTE,Latte parzialmente scremato  -  da definire  - cartone 1 lt,,Unità,Latte tutti i formati
DA FRIGO,LATTE,"Latte  parzialmente scremato  -  da definire - cartone 1,5 lt",,Unità,Latte tutti i formati
DA FRIGO,LATTE,Latte  parzialmente scremato -  da definire  - cartone 2  lt,,Unità,Latte tutti i formati
DA FRIGO,LATTE,Latte fresco parzialmene scremato - Alta sabina – cartone 1 lt,,Unità,Latte fresco parzialmene scremato - Alta sabina – cartone 1 lt
DA FRIGO,LATTE,Latte fresco intero - Alta sabina – cartone 1 lt,,Unità,Latte fresco intero - Alta sabina – cartone 1 lt
DA FRIGO,LATTE,Latte fresco scremato - Alta sabina – cartone 1 lt,,Unità,Latte fresco scremato - Alta sabina – cartone 1 lt
DA FRIGO,FORMAGGI E LATTICINI,Besciamella - Chef - 125gr,,Unità,Besciamella - Chef - 125gr
DA FRIGO,FORMAGGI E LATTICINI,Besciamella da definire ,,Unità,Besciamella da definire 
DA FRIGO,FORMAGGI E LATTICINI,Panna da cucina - Chef - 125gr,,Unità,Panna da cucina - Chef - 125gr
DA FRIGO,FORMAGGI E LATTICINI,Panna da cucina da definire,,Unità,Panna da cucina da definire
DA FRIGO,FORMAGGI E LATTICINI,Panna montata - Campina - 225 gr,,Unità,Panna montata - Campina - 225 gr
DA FRIGO,FORMAGGI E LATTICINI,Panna montata - Chef - 250 gr,,Unità,Panna montata - Chef - 250 gr
DA FRIGO,FORMAGGI E LATTICINI,Panna montana da definire,,Unità,Panna montana da definire
DA FRIGO,FORMAGGI E LATTICINI,Mozzarella - Galbani - 125gr,,Unità,Mozzarella - Galbani - 125gr
DA FRIGO,FORMAGGI E LATTICINI,Mozzarella - Granarolo - 100gr,,Unità,Mozzarella - Granarolo - 100gr
DA FRIGO,FORMAGGI E LATTICINI,Mozzarella - Centrale del latte - 350gr,,Unità,Mozzarella - Centrale del latte - 350gr
DA FRIGO,FORMAGGI E LATTICINI,Mozzarella da definire,,Unità,Mozzarella da definire
DA FRIGO,FORMAGGI E LATTICINI,Formaggio a pasta dura - Galbani - 230gr,,Unità,Formaggio a pasta dura - Galbani - 230gr
DA FRIGO,FORMAGGI E LATTICINI,Formaggio a pasta dura da definire,,Unità,Formaggio a pasta dura da definire
DA FRIGO,FORMAGGI E LATTICINI,Formaggio spalmabile - Philadelphia - 80gr,,Unità,Formaggio spalmabile - Philadelphia - 80gr
DA FRIGO,FORMAGGI E LATTICINI,Formaggio spalmabile - Philadelphia - 100gr,,Unità,Formaggio spalmabile - Philadelphia - 100gr
DA FRIGO,FORMAGGI E LATTICINI,Formaggio spalmabile da definire,,Unità,Formaggio spalmabile da definire
DA FRIGO,FORMAGGI E LATTICINI,Formaggio a pasta molle - Galbani - 100gr,,Unità,Formaggio a pasta molle - Galbani - 100gr
DA FRIGO,FORMAGGI E LATTICINI,Formaggio a pasta molle - Nonno Nanni - 100gr,,Unità,Formaggio a pasta molle - Nonno Nanni - 100gr
DA FRIGO,FORMAGGI E LATTICINI,Formaggio a pasta molle - Granarolo - 100gr,,Unità,Formaggio a pasta molle - Granarolo - 100gr
DA FRIGO,FORMAGGI E LATTICINI,Formaggio a pasta molle da definire,,Unità,Formaggio a pasta molle da definire
DA FRIGO,FORMAGGI E LATTICINI,Formaggio a pasta fusa - Nonno Nanni - 100gr,,Unità,Formaggio a pasta fusa - Nonno Nanni - 100gr
DA FRIGO,FORMAGGI E LATTICINI,Formaggio a pasta fusa - Kraft - 200gr,,Unità,Formaggio a pasta fusa - Kraft - 200gr
DA FRIGO,FORMAGGI E LATTICINI,Formaggio a pasta fusa - Granarolo - 200gr,,Unità,Formaggio a pasta fusa - Granarolo - 200gr
DA FRIGO,FORMAGGI E LATTICINI,Formaggio a pasta fusa - Galbani - 200gr,,Unità,Formaggio a pasta fusa - Galbani - 200gr
DA FRIGO,FORMAGGI E LATTICINI,Formaggio a pasta fusa da definire,,Unità,Formaggio a pasta fusa da definire
DA FRIGO,FORMAGGI E LATTICINI,Burro - Dolomiti - 250gr,,Unità,Burro - Dolomiti - 250gr
DA FRIGO,FORMAGGI E LATTICINI,Burro da definire,,Unità,Burro da definire
DA FRIGO,FORMAGGI E LATTICINI,Formaggio stagionato - Galbani - 80gr,,Unità,Formaggio stagionato - Galbani - 80gr
DA FRIGO,FORMAGGI E LATTICINI,Formaggio stagionato - Granarolo - 80gr,,Unità,Formaggio stagionato - Granarolo - 80gr
DA FRIGO,FORMAGGI E LATTICINI,Formaggio stagionato da definire,,Unità,Formaggio stagionato da definire
DA FRIGO,FORMAGGI E LATTICINI,Yogurt zero grassi Vaniglia - Muller - 2x125gr,,Unità,Yogurt zero grassi Vaniglia - Muller - 2x125gr
DA FRIGO,FORMAGGI E LATTICINI,Yogurt zero grassi Ciliegia - Muller - 2x125gr,,Unità,Yogurt zero grassi Ciliegia - Muller - 2x125gr
DA FRIGO,FORMAGGI E LATTICINI,Yogurt zero grassi Fragola - Muller - 2x125gr,,Unità,Yogurt zero grassi Fragola - Muller - 2x125gr
DA FRIGO,FORMAGGI E LATTICINI,Yogurt zero grassi Mirtillo - Muller - 2x125gr,,Unità,Yogurt zero grassi Mirtillo - Muller - 2x125gr
DA FRIGO,FORMAGGI E LATTICINI,Yogurt zero grassi Caffe - Muller - 2x125gr,,Unità,Yogurt zero grassi Caffe - Muller - 2x125gr
DA FRIGO,FORMAGGI E LATTICINI,Yogurt zero grassi Pistacchio - Muller - 2x125gr,,Unità,Yogurt zero grassi Pistacchio - Muller - 2x125gr
DA FRIGO,FORMAGGI E LATTICINI,Yogurt zero grassi Ananas e Pesca - Muller - 2x125gr,,Unità,Yogurt zero grassi Ananas e Pesca - Muller - 2x125gr
DA FRIGO,FORMAGGI E LATTICINI,Yogurt zero grassi Bianco - Muller - 2x125gr,,Unità,Yogurt zero grassi Bianco - Muller - 2x125gr
DA FRIGO,FORMAGGI E LATTICINI,Yogurt  Vaniglia - Danone - 125gr,,Unità,Yogurt  Vaniglia - Danone - 125gr
DA FRIGO,FORMAGGI E LATTICINI,Yogurt  Albicocca - Danone - 125gr,,Unità,Yogurt  Albicocca - Danone - 125gr
DA FRIGO,FORMAGGI E LATTICINI,Yogurt  Fragola - Danone - 125gr,,Unità,Yogurt  Fragola - Danone - 125gr
DA FRIGO,FORMAGGI E LATTICINI,Yogurt Ciliegia - Danone - 125gr,,Unità,Yogurt Ciliegia - Danone - 125gr
DA FRIGO,FORMAGGI E LATTICINI,Yogurt  Mirtillo - Danone - 125gr,,Unità,Yogurt  Mirtillo - Danone - 125gr
DA FRIGO,FORMAGGI E LATTICINI,Yogurt  Prugna - Danone - 125gr,,Unità,Yogurt  Prugna - Danone - 125gr
DA FRIGO,FORMAGGI E LATTICINI,Yogurt  Pera e cereali - Danone - 125gr,,Unità,Yogurt  Pera e cereali - Danone - 125gr
DA FRIGO,FORMAGGI E LATTICINI,Yogurt  Quinoa e Semi - Danone - 125gr,,Unità,Yogurt  Quinoa e Semi - Danone - 125gr
DA FRIGO,FORMAGGI E LATTICINI,Yogurt  Frutti di bosco e Crusca - Danone - 125gr,,Unità,Yogurt  Frutti di bosco e Crusca - Danone - 125gr
DA FRIGO,FORMAGGI E LATTICINI,Yogurt  Kiwi e Cereali - Danone - 125gr,,Unità,Yogurt  Kiwi e Cereali - Danone - 125gr
DA FRIGO,FORMAGGI E LATTICINI,Yogurt da definire,,Unità,Yogurt da definire
DA FRIGO,FORMAGGI E LATTICINI,Kinder Fetta al Latte,,Unità,Kinder Fetta al Latte
DA FRIGO,FORMAGGI E LATTICINI,Kinder Yogurt in Mango & Maracuja,,Unità,Kinder Yogurt in Mango & Maracuja
DA FRIGO,FORMAGGI E LATTICINI,Kinder Yogurt in Mirtillo & Cranberry,,Unità,Kinder Yogurt in Mirtillo & Cranberry
DA FRIGO,FORMAGGI E LATTICINI,Kinder Pingui,,Unità,Kinder Pingui
DA FRIGO,FORMAGGI E LATTICINI,Kinder Pingui Cocco,,Unità,Kinder Pingui Cocco
DA FRIGO,FORMAGGI E LATTICINI,Kinder Paradiso,,Unità,Kinder Paradiso
DA FRIGO,FORMAGGI E LATTICINI,Kinder Maxi King,,Unità,Kinder Maxi King
DA FRIGO,FORMAGGI E LATTICINI,Kinder Pingui Ciliegia,,Unità,Kinder Pingui Ciliegia
DA FRIGO,FORMAGGI E LATTICINI,Yogurt Agrumi con marmellata di arancia e scorzette - Yomo - 150gr,,Unità,Yogurt Agrumi con marmellata di arancia e scorzette - Yomo - 150gr
DA FRIGO,FORMAGGI E LATTICINI,Yogurt Mirtilli con purea di fragole in pezzi - Yomo - 150gr,,Unità,Yogurt Mirtilli con purea di fragole in pezzi - Yomo - 150gr
DA FRIGO,FORMAGGI E LATTICINI,Yogurt Caffe con cioccolato e granella di fave di cacao - Yomo - 150gr,,Unità,Yogurt Caffe con cioccolato e granella di fave di cacao - Yomo - 150gr
DA FRIGO,FORMAGGI E LATTICINI,Yogurt Bianco Crema  - Yomo - 2x125gr,,Unità,Yogurt Bianco Crema  - Yomo - 2x125gr
DA FRIGO,FORMAGGI E LATTICINI,Yogurt al Cocco  - Yomo - 2x125gr,,Unità,Yogurt al Cocco  - Yomo - 2x125gr
DA FRIGO,FORMAGGI E LATTICINI,Yogurt alla Vaniglia  - Yomo - 2x125gr,,Unità,Yogurt alla Vaniglia  - Yomo - 2x125gr
DA FRIGO,FORMAGGI E LATTICINI,Yogurt alla Stracciatella  - Yomo - 2x125gr,,Unità,Yogurt alla Stracciatella  - Yomo - 2x125gr
DA FRIGO,FORMAGGI E LATTICINI,Yogurt al Pistacchio  - Yomo - 2x125gr,,Unità,Yogurt al Pistacchio  - Yomo - 2x125gr
DA FRIGO,FORMAGGI E LATTICINI,Yogurt al con Nocciole  - Yomo - 2x125gr,,Unità,Yogurt al con Nocciole  - Yomo - 2x125gr
DA FRIGO,FORMAGGI E LATTICINI,Yogurt con Agrumi di Sicilia  - Yomo - 2x125gr,,Unità,Yogurt con Agrumi di Sicilia  - Yomo - 2x125gr
DA FRIGO,FORMAGGI E LATTICINI,Yogurt Intero con Caffe  - Yomo - 2x125gr,,Unità,Yogurt Intero con Caffe  - Yomo - 2x125gr
DA FRIGO,FORMAGGI E LATTICINI,Yogurt Intero con Fragole  - Yomo - 2x125gr,,Unità,Yogurt Intero con Fragole  - Yomo - 2x125gr
DA FRIGO,FORMAGGI E LATTICINI,Yogurt al Pistacchio  - Yomo - 2x125gr,,Unità,Yogurt al Pistacchio  - Yomo - 2x125gr
DA FRIGO,AFFETTATI,Prosciutto dolce stagionato - montorsi - 60gr,,Unità,Prosciutto dolce stagionato - montorsi - 60gr
DA FRIGO,AFFETTATI,Mortadella - montorsi - 60gr,,Unità,Mortadella - montorsi - 60gr
DA FRIGO,AFFETTATI,Bresaola - montorsi - 60gr,,Unità,Bresaola - montorsi - 60gr
DA FRIGO,AFFETTATI,Speck - montorsi - 60gr,,Unità,Speck - montorsi - 60gr
DA FRIGO,AFFETTATI,Coppa dolce stagionata - montorsi - 60gr,,Unità,Coppa dolce stagionata - montorsi - 60gr
DA FRIGO,AFFETTATI,Pancetta dolce stagionata - montorsi - 60gr,,Unità,Pancetta dolce stagionata - montorsi - 60gr
DA FRIGO,AFFETTATI,Salame ungherese - montorsi - 60gr,,Unità,Salame ungherese - montorsi - 60gr
DA FRIGO,AFFETTATI,Salame milano - montorsi - 60gr,,Unità,Salame milano - montorsi - 60gr
DA FRIGO,AFFETTATI,Salame napoli - montorsi - 60gr,,Unità,Salame napoli - montorsi - 60gr
DA FRIGO,AFFETTATI,Salame piccante - montorsi - 60gr,,Unità,Salame piccante - montorsi - 60gr
DA FRIGO,AFFETTATI,Salsiccia dolce - montorsi - 60gr,,Unità,Salsiccia dolce - montorsi - 60gr
DA FRIGO,AFFETTATI,Salsiccia piccante - montorsi - 60gr,,Unità,Salsiccia piccante - montorsi - 60gr
DA FRIGO,AFFETTATI,Prosciutto cotto aq - montorsi - 60gr,,Unità,Prosciutto cotto aq - montorsi - 60gr
DA FRIGO,AFFETTATI,Tacchino al forno - montorsi - 60gr,,Unità,Tacchino al forno - montorsi - 60gr
DA FRIGO,AFFETTATI,Prosciutto crudo - beretta - 100gr,,Unità,Prosciutto crudo - beretta - 100gr
DA FRIGO,AFFETTATI,Mortadella - beretta - 120gr,,Unità,Mortadella - beretta - 120gr
DA FRIGO,AFFETTATI,Bresaola - beretta - 100gr,,Unità,Bresaola - beretta - 100gr
DA FRIGO,AFFETTATI,Speck - beretta - 100gr,,Unità,Speck - beretta - 100gr
DA FRIGO,AFFETTATI,Coppa dolce stagionata  - beretta - 100gr,,Unità,Coppa dolce stagionata  - beretta - 100gr
DA FRIGO,AFFETTATI,Pancetta dolce stagionata - beretta - 100gr,,Unità,Pancetta dolce stagionata - beretta - 100gr
DA FRIGO,AFFETTATI,Salame milano - beretta - 100gr,,Unità,Salame milano - beretta - 100gr
DA FRIGO,AFFETTATI,Salsiccia dolce Napoli - beretta - 250gr,,Unità,Salsiccia dolce Napoli - beretta - 250gr
DA FRIGO,AFFETTATI,Salsiccia piccante Napoli - beretta - 250gr,,Unità,Salsiccia piccante Napoli - beretta - 250gr
DA FRIGO,AFFETTATI,Prosciutto cotto - beretta - 120gr,,Unità,Prosciutto cotto - beretta - 120gr
DA FRIGO,AFFETTATI,Tacchino al forno - beretta - 100gr,,Unità,Tacchino al forno - beretta - 100gr
DA FRIGO,AFFETTATI,Prosciutto crudo - negroni - 100gr,,Unità,Prosciutto crudo - negroni - 100gr
DA FRIGO,AFFETTATI,Mortadella - negroni - 100gr,,Unità,Mortadella - negroni - 100gr
DA FRIGO,AFFETTATI,Bresaola - negroni - 100gr,,Unità,Bresaola - negroni - 100gr
DA FRIGO,AFFETTATI,Speck -  negroni - 100gr,,Unità,Speck -  negroni - 100gr
DA FRIGO,AFFETTATI,Coppa dolce stagionata  - negroni - 100gr,,Unità,Coppa dolce stagionata  - negroni - 100gr
DA FRIGO,AFFETTATI,Pancetta dolce stagionata  - negroni - 100gr,,Unità,Pancetta dolce stagionata  - negroni - 100gr
DA FRIGO,AFFETTATI,Salame milano - negroni - 100gr,,Unità,Salame milano - negroni - 100gr
DA FRIGO,AFFETTATI,Salsiccia dolce  - negroni - 100gr,,Unità,Salsiccia dolce  - negroni - 100gr
DA FRIGO,AFFETTATI,Salsiccia piccante - negroni - 250gr,,Unità,Salsiccia piccante - negroni - 250gr
DA FRIGO,AFFETTATI,Prosciutto cotto - negroni - 100gr,,Unità,Prosciutto cotto - negroni - 100gr
DA FRIGO,AFFETTATI,Tacchino al forno - negroni - 100gr,,Unità,Tacchino al forno - negroni - 100gr
DA FRIGO,AFFETTATI,Wurstel - aia - 250gr,,Unità,Wurstel - aia - 250gr
DA FRIGO,AFFETTATI,Wurstel - aia - 100gr,,Unità,Wurstel - aia - 100gr
DA FRIGO,AFFETTATI,Wurstel - beretta - 250gr,,Unità,Wurstel - beretta - 250gr
DA FRIGO,AFFETTATI,Wurstel - beretta - 100gr,,Unità,Wurstel - beretta - 100gr
DA FRIGO,AFFETTATI,Wurstel - fiorucci - 100gr,,Unità,Wurstel - fiorucci - 100gr
DA FRIGO,AFFETTATI,Wurstel da definire,,Unità,Wurstel da definire
DA FRIGO,AFFETTATI,Prosciutto in confezione crudo da definire,,Unità,Prosciutto in confezione crudo da definire
DA FRIGO,AFFETTATI,Prosciutto tagliato da definire,,Unità,Prosciutto tagliato da definire
DA FRIGO,AFFETTATI,Mortadella in confezione crudo da definire,,Unità,Mortadella in confezione crudo da definire
DA FRIGO,AFFETTATI,Mortadella tagliato da definire,,Unità,Mortadella tagliato da definire
DA FRIGO,AFFETTATI,Bresaola in confezione crudo da definire,,Unità,Bresaola in confezione crudo da definire
DA FRIGO,AFFETTATI,Bresaola tagliato da definire,,Unità,Bresaola tagliato da definire
DA FRIGO,AFFETTATI,Speck in confezione crudo da definire,,Unità,Speck in confezione crudo da definire
DA FRIGO,AFFETTATI,Speck tagliato da definire,,Unità,Speck tagliato da definire
DA FRIGO,AFFETTATI,Coppa dolce stagionata in confezione crudo da definire,,Unità,Coppa dolce stagionata in confezione crudo da definire
DA FRIGO,AFFETTATI,Coppa dolce stagionata tagliato da definire,,Unità,Coppa dolce stagionata tagliato da definire
DA FRIGO,AFFETTATI,Pancetta dolce stagionata in confezione crudo da definire,,Unità,Pancetta dolce stagionata in confezione crudo da definire
DA FRIGO,AFFETTATI,Pancetta dolce stagionata da definire,,Unità,Pancetta dolce stagionata da definire
DA FRIGO,AFFETTATI,Salame ungherese in confezione crudo da definire,,Unità,Salame ungherese in confezione crudo da definire
DA FRIGO,AFFETTATI,Salame ungherese tagliato da definire,,Unità,Salame ungherese tagliato da definire
DA FRIGO,AFFETTATI,Salame milano in confezione crudo da definire,,Unità,Salame milano in confezione crudo da definire
DA FRIGO,AFFETTATI,Salame milano tagliato da definire,,Unità,Salame milano tagliato da definire
DA FRIGO,AFFETTATI,Salame napoli in confezione da definire,,Unità,Salame napoli in confezione da definire
DA FRIGO,AFFETTATI,Salame napoli tagliato da definire,,Unità,Salame napoli tagliato da definire
DA FRIGO,AFFETTATI,Salame piccante in confezione crudo da definire,,Unità,Salame piccante in confezione crudo da definire
DA FRIGO,AFFETTATI,Salame piccante tagliato da definire,,Unità,Salame piccante tagliato da definire
DA FRIGO,AFFETTATI,Salsiccia dolce in confezione crudo da definire,,Unità,Salsiccia dolce in confezione crudo da definire
DA FRIGO,AFFETTATI,Salsiccia dolce tagliato da definire,,Unità,Salsiccia dolce tagliato da definire
DA FRIGO,AFFETTATI,Salsiccia piccante in confezione crudo da definire,,Unità,Salsiccia piccante in confezione crudo da definire
DA FRIGO,AFFETTATI,Salsiccia piccante tagliato da definire,,Unità,Salsiccia piccante tagliato da definire
DA FRIGO,AFFETTATI,Prosciutto cotto aq in confezione crudo da definire,,Unità,Prosciutto cotto aq in confezione crudo da definire
DA FRIGO,AFFETTATI,Prosciutto cotto tagliato da definire,,Unità,Prosciutto cotto tagliato da definire
DA FRIGO,AFFETTATI,Tacchino al forno da definire,,Unità,Tacchino al forno da definire
DA FRIGO,AFFETTATI,Tacchino tagliato da definire,,Unità,Tacchino tagliato da definire
DA FRIGO,AFFETTATI,Pancetta a cubetti - fiorucci - 140gr,,Unità,Pancetta a cubetti - fiorucci - 140gr
DA FRIGO,AFFETTATI,Pancetta a cubetti - montorsi - 80gr,,Unità,Pancetta a cubetti - montorsi - 80gr
DA FRIGO,AFFETTATI,Pancetta a cubetti - beretta - 150gr,,Unità,Pancetta a cubetti - beretta - 150gr
DA FRIGO,AFFETTATI,Pancetta a cubetti da definire,,Unità,Pancetta a cubetti da definire
DA FRIGO,UOVA,2 Uova grandissime fresche - Le naturelle,,Unità,2 Uova grandissime fresche - Le naturelle
DA FRIGO,UOVA,4 Uova fresche - Le naturelle,,Unità,4 Uova fresche - Le naturelle
DA FRIGO,UOVA,6 Uova medie fresche - Le naturelle,,Unità,6 Uova medie fresche - Le naturelle
DA FRIGO,UOVA,6 Uova grandi fresche - Le naturelle,,Unità,6 Uova grandi fresche - Le naturelle
DA FRIGO,UOVA,8 (6+2) Uova medie fresche - Le naturelle,,Unità,8 (6+2) Uova medie fresche - Le naturelle
DA FRIGO,UOVA,6 Uova grandi extra fresche - Le naturelle,,Unità,6 Uova grandi extra fresche - Le naturelle
DA FRIGO,UOVA,6 Uova grandissime fresche - Le naturelle,,Unità,6 Uova grandissime fresche - Le naturelle
DA FRIGO,UOVA,15 Uova medie fresche - Le naturelle,,Unità,15 Uova medie fresche - Le naturelle
DA FRIGO,UOVA,2 Uova grandissime fresche da definire,,Unità,2 Uova grandissime fresche da definire
DA FRIGO,UOVA,4 Uova fresche da definire,,Unità,4 Uova fresche da definire
DA FRIGO,UOVA,6 Uova medie fresche da definire,,Unità,6 Uova medie fresche da definire
DA FRIGO,UOVA,6 Uova grandi fresche da definire,,Unità,6 Uova grandi fresche da definire
DA FRIGO,UOVA,8 Uova medie fresche da definire,,Unità,8 Uova medie fresche da definire
DA FRIGO,UOVA,6 Uova grandi extra fresche da definire,,Unità,6 Uova grandi extra fresche da definire
DA FRIGO,UOVA,6 Uova grandissime fresche da definire,,Unità,6 Uova grandissime fresche da definire
DA FRIGO,UOVA,15 Uova medie fresche da definire,,Unità,15 Uova medie fresche da definire
