CATEGORY,TYPE,FOOD,DESCRIPTION,UNIT OF MEASURE,IMAGE
PIATTO PREPARATO,ANTIPASTI,Treccia di bufala campana,,Porzione,Antipasto da definire
PIATTO PREPARATO,ANTIPASTI,Ricottine farcite ,,Porzione,Antipasto da definire
PIATTO PREPARATO,ANTIPASTI,Grana,,Porzione,Antipasto da definire
PIATTO PREPARATO,ANTIPASTI,Prosciutto crudo,,Porzione,Antipasto da definire
PIATTO PREPARATO,ANTIPASTI,Frittatine ,,Porzione,Antipasto da definire
PIATTO PREPARATO,ANTIPASTI,Torte rustiche,,Porzione,Antipasto da definire
PIATTO PREPARATO,ANTIPASTI,Bruschette miste,,Porzione,Antipasto da definire
PIATTO PREPARATO,ANTIPASTI,Antipasti mare caldi misti,,Porzione,Antipasto da definire
PIATTO PREPARATO,ANTIPASTI,Antipasti mare freddi misti,,Porzione,Antipasto da definire
PIATTO PREPARATO,ANTIPASTI,Prosciutto cotto,,Porzione,Antipasto da definire
PIATTO PREPARATO,ANTIPASTI,Bresaola e grana,,Porzione,Antipasto da definire
PIATTO PREPARATO,ANTIPASTI,Antipasto di terra da definire,,Porzione,Antipasto da definire
PIATTO PREPARATO,ANTIPASTI,Antipasto di mare da definire,,Porzione,Antipasto da definire
PIATTO PREPARATO,ANTIPASTI,Antipasto terra e mare  da definire,,Porzione,Antipasto da definire
PIATTO PREPARATO,ANTIPASTI,Antipasto di pesce  da definire,,Porzione,Antipasto da definire
PIATTO PREPARATO,ANTIPASTI,Pasta lunga da definire,,Porzione,Antipasto da definire
PIATTO PREPARATO,ANTIPASTI,Pasta corta da definire,,Porzione,Antipasto da definire
PIATTO PREPARATO,ANTIPASTI,Tortellini da definire,,Porzione,Antipasto da definire
PIATTO PREPARATO,ANTIPASTI,Riso da definire,,Porzione,Antipasto da definire
PIATTO PREPARATO,ANTIPASTI,Minestrone di verdure,,Porzione,Antipasto da definire
PIATTO PREPARATO,ANTIPASTI,Minestrone da definire,,Porzione,Antipasto da definire
PIATTO PREPARATO,ANTIPASTI,Minestra da definire,,Porzione,Antipasto da definire
PIATTO PREPARATO,ANTIPASTI,Tagliere di affettati misti,,Porzione,Antipasto da definire
PIATTO PREPARATO,ANTIPASTI,Antipasto da definire,,Porzione,Antipasto da definire
PIATTO PREPARATO,ANTIPASTI,Penne scampi e gamberetti,,Porzione,Antipasto da definire
PIATTO PREPARATO,PRIMI,Primo di pesce da definire,,Porzione,Primo piatto da definire
PIATTO PREPARATO,PRIMI,Trofie zucchine e gamberetti,,Porzione,Primo piatto da definire
PIATTO PREPARATO,PRIMI,Ravioli ricotta e spinaci,,Porzione,Primo piatto da definire
PIATTO PREPARATO,PRIMI,Cannelloni di carne,,Porzione,Primo piatto da definire
PIATTO PREPARATO,PRIMI,Farfalline bufala e pachino,,Porzione,Primo piatto da definire
PIATTO PREPARATO,PRIMI,Rriso venere con verdurine,,Porzione,Primo piatto da definire
PIATTO PREPARATO,PRIMI,Insalata di riso venere con verdurine,,Porzione,Primo piatto da definire
PIATTO PREPARATO,PRIMI,Trofiette asparagi e speck,,Porzione,Primo piatto da definire
PIATTO PREPARATO,PRIMI,Cannelloni ricotta e spinaci,,Porzione,Primo piatto da definire
PIATTO PREPARATO,PRIMI,Timballo di pasta,,Porzione,Primo piatto da definire
PIATTO PREPARATO,PRIMI,Parmigiana di melanzana,,Porzione,Primo piatto da definire
PIATTO PREPARATO,PRIMI,Pasta al pomodoro e basilico,,Porzione,Primo piatto da definire
PIATTO PREPARATO,PRIMI,Linguine al tonno,,Porzione,Primo piatto da definire
PIATTO PREPARATO,PRIMI,Pasta puttanesca,,Porzione,Primo piatto da definire
PIATTO PREPARATO,PRIMI,Pasta Amatriciana,,Porzione,Primo piatto da definire
PIATTO PREPARATO,PRIMI,Pasta Carbonara,,Porzione,Primo piatto da definire
PIATTO PREPARATO,PRIMI,Pasta Cacio e pepe,,Porzione,Primo piatto da definire
PIATTO PREPARATO,PRIMI,Pasta Gricia,,Porzione,Primo piatto da definire
PIATTO PREPARATO,PRIMI,Orecchiette broccoli e salsiccia,,Porzione,Primo piatto da definire
PIATTO PREPARATO,PRIMI,Pasta aglio olio e peperoncino,,Porzione,Primo piatto da definire
PIATTO PREPARATO,PRIMI,Gnocchi pesto e patate,,Porzione,Primo piatto da definire
PIATTO PREPARATO,PRIMI,Gnocchi pomodoro e basilico,,Porzione,Primo piatto da definire
PIATTO PREPARATO,PRIMI,Pasta alla norma,,Porzione,Primo piatto da definire
PIATTO PREPARATO,PRIMI,Fettuccine al tartufo,,Porzione,Primo piatto da definire
PIATTO PREPARATO,PRIMI,Fettuccine paglia e fieno funghi e piselli,,Porzione,Primo piatto da definire
PIATTO PREPARATO,PRIMI,Pappardelle al cinghiale,,Porzione,Primo piatto da definire
PIATTO PREPARATO,PRIMI,Pasta salsiccia e zucchine,,Porzione,Primo piatto da definire
PIATTO PREPARATO,PRIMI,Gnocchi 4 formaggi,,Porzione,Primo piatto da definire
PIATTO PREPARATO,PRIMI,Fusilli salsiccia e peperoni,,Porzione,Primo piatto da definire
PIATTO PREPARATO,PRIMI,Pasta zucchine pancetta e pecorino,,Porzione,Primo piatto da definire
PIATTO PREPARATO,PRIMI,Risotto radicchio e salsiccia,,Porzione,Primo piatto da definire
PIATTO PREPARATO,PRIMI,Risotto zucchine fiori di zucca e scamorza,,Porzione,Primo piatto da definire
PIATTO PREPARATO,PRIMI,Risotto fungi e salsiccia,,Porzione,Primo piatto da definire
PIATTO PREPARATO,PRIMI,Risotto carciofi e salsiccia,,Porzione,Primo piatto da definire
PIATTO PREPARATO,PRIMI,Linguine tonno capperi cipolle prezzemolo,,Porzione,Primo piatto da definire
PIATTO PREPARATO,PRIMI,Risotto nero di seppia,,Porzione,Primo piatto da definire
PIATTO PREPARATO,PRIMI,Risotto alla pescatora,,Porzione,Primo piatto da definire
PIATTO PREPARATO,PRIMI,Risotto scampi e gamberetti,,Porzione,Primo piatto da definire
PIATTO PREPARATO,PRIMI,Penne zucchine e salmone,,Porzione,Primo piatto da definire
PIATTO PREPARATO,PRIMI,Bigoli persico e pachino,,Porzione,Primo piatto da definire
PIATTO PREPARATO,PRIMI,Cannelloni di pesce,,Porzione,Primo piatto da definire
PIATTO PREPARATO,PRIMI,Pasta fredda,,Porzione,Primo piatto da definire
PIATTO PREPARATO,PRIMI,Polenta e spuntature,,Porzione,Primo piatto da definire
PIATTO PREPARATO,PRIMI,Polenta e salsicce,,Porzione,Primo piatto da definire
PIATTO PREPARATO,PRIMI,Risotto agli scampi,,Porzione,Primo piatto da definire
PIATTO PREPARATO,PRIMI,Lasagna ,,Porzione,Primo piatto da definire
PIATTO PREPARATO,PRIMI,Lasagna da definire,,Porzione,Primo piatto da definire
PIATTO PREPARATO,SECONDI,Wurstel ,,Porzione,Secondo piatto da definire
PIATTO PREPARATO,SECONDI,Secondo di carne da definire,,Porzione,Secondo piatto da definire
PIATTO PREPARATO,SECONDI,Secondo di pesce da definire,,Porzione,Secondo piatto da definire
PIATTO PREPARATO,SECONDI,Polpettine agli agrumi di Sicilia,,Porzione,Secondo piatto da definire
PIATTO PREPARATO,SECONDI,Roast beef rucola e pachino,,Porzione,Secondo piatto da definire
PIATTO PREPARATO,SECONDI,Scaloppine al vino,,Porzione,Secondo piatto da definire
PIATTO PREPARATO,SECONDI,Scaloppine al limone,,Porzione,Secondo piatto da definire
PIATTO PREPARATO,SECONDI,Porchetta di Ariccia,,Porzione,Secondo piatto da definire
PIATTO PREPARATO,SECONDI,Petto di pollo  alla piastra,,Porzione,Secondo piatto da definire
PIATTO PREPARATO,SECONDI,Petto di pollo  al forno ,,Porzione,Secondo piatto da definire
PIATTO PREPARATO,SECONDI,spiedini di carne mista,,Porzione,Secondo piatto da definire
PIATTO PREPARATO,SECONDI,Salsicce arrosto,,Porzione,Secondo piatto da definire
PIATTO PREPARATO,SECONDI,Cotoletta di maiale panata,,Porzione,Secondo piatto da definire
PIATTO PREPARATO,SECONDI,fettine alla pizzaiola,,Porzione,Secondo piatto da definire
PIATTO PREPARATO,SECONDI,Arista di maiale al forno,,Porzione,Secondo piatto da definire
PIATTO PREPARATO,SECONDI,Ossobuco di vitella con piselli,,Porzione,Secondo piatto da definire
PIATTO PREPARATO,SECONDI,Puntine maiale al forno,,Porzione,Secondo piatto da definire
PIATTO PREPARATO,SECONDI,Arrosto misto,,Porzione,Secondo piatto da definire
PIATTO PREPARATO,SECONDI,Porchetta al forno,,Porzione,Secondo piatto da definire
PIATTO PREPARATO,SECONDI,Braciole di maiale o di manzo,,Porzione,Secondo piatto da definire
PIATTO PREPARATO,SECONDI,Pollo arrosto o cosci di pollo,,Porzione,Secondo piatto da definire
PIATTO PREPARATO,SECONDI,Stinco di maiale al forno,,Porzione,Secondo piatto da definire
PIATTO PREPARATO,SECONDI,Galletto alla pietra lavica,,Porzione,Secondo piatto da definire
PIATTO PREPARATO,SECONDI,Tacchino al forno,,Porzione,Secondo piatto da definire
PIATTO PREPARATO,SECONDI,Coniglio alla cacciatora,,Porzione,Secondo piatto da definire
PIATTO PREPARATO,SECONDI,Anatra al forno,,Porzione,Secondo piatto da definire
PIATTO PREPARATO,SECONDI,Spezzatino di maiale con peperoni,,Porzione,Secondo piatto da definire
PIATTO PREPARATO,SECONDI,Pollo con peperoni,,Porzione,Secondo piatto da definire
PIATTO PREPARATO,SECONDI,Maialino al forno,,Porzione,Secondo piatto da definire
PIATTO PREPARATO,SECONDI,Bollito di manzo,,Porzione,Secondo piatto da definire
PIATTO PREPARATO,SECONDI,Salsicce con lenticchie,,Porzione,Secondo piatto da definire
PIATTO PREPARATO,SECONDI,Polpette carne mista,,Porzione,Secondo piatto da definire
PIATTO PREPARATO,SECONDI,Faraona al crostone,,Porzione,Secondo piatto da definire
PIATTO PREPARATO,SECONDI,Rollè di tacchino,,Porzione,Secondo piatto da definire
PIATTO PREPARATO,SECONDI,Straccetti di vitello,,Porzione,Secondo piatto da definire
PIATTO PREPARATO,SECONDI,Scaloppine ai funghi o al limone,,Porzione,Secondo piatto da definire
PIATTO PREPARATO,SECONDI,Faraona arrosto,,Porzione,Secondo piatto da definire
PIATTO PREPARATO,SECONDI,Punte di petto di vitella,,Porzione,Secondo piatto da definire
PIATTO PREPARATO,SECONDI,Filetti di pesce fritto,,Porzione,Secondo piatto da definire
PIATTO PREPARATO,SECONDI,Spiedini di pesce,,Porzione,Secondo piatto da definire
PIATTO PREPARATO,SECONDI,Seppie con piselli,,Porzione,Secondo piatto da definire
PIATTO PREPARATO,SECONDI,Baccalà alla livornese,,Porzione,Secondo piatto da definire
PIATTO PREPARATO,SECONDI,Frittura mista di pesce,,Porzione,Secondo piatto da definire
PIATTO PREPARATO,SECONDI,Cozze in umido,,Porzione,Secondo piatto da definire
PIATTO PREPARATO,SECONDI,Seppie ripiene,,Porzione,Secondo piatto da definire
PIATTO PREPARATO,SECONDI,Arista di maiale in crosta di pane,,Porzione,Secondo piatto da definire
PIATTO PREPARATO,SECONDI,fettine alla pizzaiola,,Porzione,Secondo piatto da definire
PIATTO PREPARATO,SECONDI,Cotoletta alla milanese,,Porzione,Secondo piatto da definire
PIATTO PREPARATO,SECONDI,Spezzatino di manzo,,Porzione,Secondo piatto da definire
PIATTO PREPARATO,SECONDI,Hamburgher,,Porzione,Secondo piatto da definire
PIATTO PREPARATO,SECONDI,Cheeseburger,,Porzione,Secondo piatto da definire
PIATTO PREPARATO,SECONDI,Hamburgher da definire,,Porzione,Secondo piatto da definire
PIATTO PREPARATO,SECONDI,Cheeseburger da definire,,Porzione,Secondo piatto da definire
PIATTO PREPARATO,SECONDI,Polenta da definire,,Porzione,Secondo piatto da definire
PIATTO PREPARATO,CONTORNI,Verdurine grigliate,,Porzione,Contorno da definire
PIATTO PREPARATO,CONTORNI,Verdurine gratinate,,Porzione,Contorno da definire
PIATTO PREPARATO,CONTORNI,Patate al forno al rosmarino,,Porzione,Contorno da definire
PIATTO PREPARATO,CONTORNI,Patate lesse  al rosmarino,,Porzione,Contorno da definire
PIATTO PREPARATO,CONTORNI,Melanzane  ripiene,,Porzione,Contorno da definire
PIATTO PREPARATO,CONTORNI,Peperoni ripieni,,Porzione,Contorno da definire
PIATTO PREPARATO,CONTORNI,Zucchine ripiene,,Porzione,Contorno da definire
PIATTO PREPARATO,CONTORNI,Patate fritte ,,Porzione,Contorno da definire
PIATTO PREPARATO,CONTORNI,Patate arrosto,,Porzione,Contorno da definire
PIATTO PREPARATO,CONTORNI,Patate pomodoro e cipolla,,Porzione,Contorno da definire
PIATTO PREPARATO,CONTORNI,Cicoria ripassata,,Porzione,Contorno da definire
PIATTO PREPARATO,CONTORNI,Broccoletti ripassati,,Porzione,Contorno da definire
PIATTO PREPARATO,CONTORNI,Spinaci all'agro,,Porzione,Contorno da definire
PIATTO PREPARATO,CONTORNI,Carote alla julienne,,Porzione,Contorno da definire
PIATTO PREPARATO,CONTORNI,Fagiolini lessi,,Porzione,Contorno da definire
PIATTO PREPARATO,CONTORNI,Puntarelle,,Porzione,Contorno da definire
PIATTO PREPARATO,CONTORNI,Cavolfiore,,Porzione,Contorno da definire
PIATTO PREPARATO,CONTORNI,Fagioli cotti da definire ,,Porzione,Contorno da definire
PIATTO PREPARATO,CONTORNI, Broccoletti di bruxelles,,Porzione,Contorno da definire
PIATTO PREPARATO,CONTORNI,Verza cotta da definire ,,Porzione,Contorno da definire
PIATTO PREPARATO,CONTORNI,Tonno e pomodori,,Porzione,Contorno da definire
PIATTO PREPARATO,CONTORNI, Finocchi lessi,,Porzione,Contorno da definire
PIATTO PREPARATO,CONTORNI,Broccolo verde,,Porzione,Contorno da definire
PIATTO PREPARATO,CONTORNI,Zucchine lesse,,Porzione,Contorno da definire
PIATTO PREPARATO,CONTORNI,Spinaci al burro,,Porzione,Contorno da definire
PIATTO PREPARATO,CONTORNI,Carote lesse,,Porzione,Contorno da definire
PIATTO PREPARATO,CONTORNI,Verdura da definire – porzione,,Porzione,Contorno da definire
PIATTO PREPARATO,CONTORNI,Uovo cotto da definire,,Porzione,Contorno da definire
PIATTO PREPARATO,CONTORNI,Uova al tegamino,,Porzione,Contorno da definire
PIATTO PREPARATO,CONTORNI,Uova sode,,Porzione,Contorno da definire
PIATTO PREPARATO,CONTORNI,Finocchi cotti da definire,,Porzione,Contorno da definire
PIATTO PREPARATO,INSALATE,Insalata russa,,Porzione,Insalata da definire
PIATTO PREPARATO,INSALATE,Insalata verde con pomodori,,Porzione,Insalata da definire
PIATTO PREPARATO,INSALATE,Insalata verde,,Porzione,Insalata da definire
PIATTO PREPARATO,INSALATE,Insalata con tonno e pomodori,,Porzione,Insalata da definire
PIATTO PREPARATO,INSALATE,Insalatona mista,,Porzione,Insalata da definire
PIATTO PREPARATO,INSALATE,Cesar Salad,,Porzione,Insalata da definire
PIATTO PREPARATO,INSALATE,Insalata Greca,,Porzione,Insalata da definire
PIATTO PREPARATO,INSALATE,Insalata cavolo e carote,,Porzione,Insalata da definire
PIATTO PREPARATO,INSALATE,Insalata con arance e olive,,Porzione,Insalata da definire
PIATTO PREPARATO,INSALATE,Insalata con carciofi,,Porzione,Insalata da definire
PIATTO PREPARATO,INSALATE,Insalata da definire,,Porzione,Insalata da definire
PIATTO PREPARATO,MENU FISSO,Piatto unico da definire,,Unità,Menu fisso da definire
PIATTO PREPARATO,MENU FISSO,Menu da definire,,Unità,Menu fisso da definire
PIATTO PREPARATO,MENU FISSO,Menu di carne da definire,,Unità,Menu fisso da definire
PIATTO PREPARATO,MENU FISSO,Menu di pesce da definire,,Unità,Menu fisso da definire
PIATTO PREPARATO,MENU FISSO,Menu di assaggi da definire,,Unità,Menu fisso da definire
PIATTO PREPARATO,MENU FISSO,Menu di Pasqua,,Unità,Menu di Pasqua
PIATTO PREPARATO,MENU FISSO,Menu di Capodanno,,Unità,Menu di Capodanno
PIATTO PREPARATO,MENU FISSO,Menu di Natale,,Unità,Menu di Natale
PIATTO PREPARATO,MENU FISSO,Menu di San Valentino,,Unità,Menu di San Valentino
PIATTO PREPARATO,MENU FISSO,Menu di Ferragosto,,Unità,Menu di Ferragosto
PIATTO PREPARATO,MENU FISSO,Menu di Carnevale,,Unità,Menu di Carnevale
PIATTO PREPARATO,MENU FISSO,Menu di Halloween,,Unità,Menu di Halloween
PIATTO PREPARATO,MENU FISSO,Menu Pizza,,Unità,Menu Pizza
PIATTO PREPARATO,MENU FISSO,Menu Compleanno,,Unità,Menu Compleanno
PIATTO PREPARATO,PANINI,Panino con hot dog,,Porzione,Panino da definire
PIATTO PREPARATO,PANINI,Panino con wurstel,,Porzione,Panino da definire
PIATTO PREPARATO,PANINI,Panino con cotoletta,,Porzione,Panino da definire
PIATTO PREPARATO,PANINI,Panino con hamburgher,,Porzione,Panino da definire
PIATTO PREPARATO,PANINI,Panino con Ceeseburgher,,Porzione,Panino da definire
PIATTO PREPARATO,PANINI,Panino con petto di pollo,,Porzione,Panino da definire
PIATTO PREPARATO,PANINI,Panino con frittata,,Porzione,Panino da definire
PIATTO PREPARATO,PANINI,Panino con prosciutto cotto e formaggio,,Porzione,Panino da definire
PIATTO PREPARATO,PANINI,Panino con prosciutto crudo e formaggio,,Porzione,Panino da definire
PIATTO PREPARATO,PANINI,Panino con fontina e tonno,,Porzione,Panino da definire
PIATTO PREPARATO,PANINI,Panino con porchetta,,Porzione,Panino da definire
PIATTO PREPARATO,PANINI,Panino con tonno e pomodoro,,Porzione,Panino da definire
PIATTO PREPARATO,PANINI,Panino con prosciutto cotto e formaggio,,Porzione,Panino da definire
PIATTO PREPARATO,PANINI,Panino con il pesce da definire,,Porzione,Panino da definire
PIATTO PREPARATO,PANINI,Panino con la carne da definire,,Porzione,Panino da definire
PIATTO PREPARATO,PANINI,Panino con le verdure da definire,,Porzione,Panino da definire
PIATTO PREPARATO,PANINI,Panino da definire,,Porzione,Panino da definire
PIATTO PREPARATO,PER FINIRE,Macedonia di frutta mista,,Porzione,Frutta per finire da definire
PIATTO PREPARATO,PER FINIRE,Macedonia di fragole,,Porzione,Frutta per finire da definire
PIATTO PREPARATO,PER FINIRE,Banana – una porzione,,Porzione,Frutta per finire da definire
PIATTO PREPARATO,PER FINIRE,Mela – una porzione,,Porzione,Frutta per finire da definire
PIATTO PREPARATO,PER FINIRE,Pera – una porzione,,Porzione,Frutta per finire da definire
PIATTO PREPARATO,PER FINIRE,Melone – una porzione,,Porzione,Frutta per finire da definire
PIATTO PREPARATO,PER FINIRE,Cocomero – una porzione,,Porzione,Frutta per finire da definire
PIATTO PREPARATO,PER FINIRE,Ananas – una porzione,,Porzione,Frutta per finire da definire
PIATTO PREPARATO,PER FINIRE,Frutta da definire – una porzione,,Porzione,Frutta per finire da definire
PIATTO PREPARATO,PER FINIRE,Macedonia con gelato,,Porzione,Frutta per finire da definire
