CATEGORY,TYPE,FOOD,DESCRIPTION,UNIT OF MEASURE,IMAGE
PIZZA,PIZZA AL TAGLIO,Pizza al taglio con nutella,,kg,Pizza al taglio con nutella
PIZZA,PIZZA AL TAGLIO,Pizza al taglio  pomodoro e mozzarella,,kg,Pizza al taglio pomodoro e mozzarella
PIZZA,PIZZA AL TAGLIO,Pizza al taglio zucchine e mozzarella,,kg,Pizza al taglio altri gusti
PIZZA,PIZZA AL TAGLIO,Pizza al taglio pala vegetariana,,kg,Pizza al taglio altri gusti
PIZZA,PIZZA AL TAGLIO,Pizza al taglio pala crostino,,kg,Pizza al taglio altri gusti
PIZZA,PIZZA AL TAGLIO,Pizza al taglio boscaiola,,kg,Pizza al taglio altri gusti
PIZZA,PIZZA AL TAGLIO,Pizza al taglio bianca,,kg,Pizza al taglio altri gusti
PIZZA,PIZZA AL TAGLIO,Pizza al taglio paesana,,kg,Pizza al taglio bianca
PIZZA,PIZZA AL TAGLIO,Pizza al taglio pere e gorgonzola,,kg,Pizza al taglio altri gusti
PIZZA,PIZZA AL TAGLIO,Pizza al taglio tonda tirolo,,kg,Pizza al taglio altri gusti
PIZZA,PIZZA AL TAGLIO,Pizza al tagliola quattro formaggi,,kg,Pizza al taglio altri gusti
PIZZA,PIZZA AL TAGLIO,Pizza al taglio bufalina,,kg,Pizza al taglio altri gusti
PIZZA,PIZZA AL TAGLIO,Pizza al taglio calabrese,,kg,Pizza al taglio altri gusti
PIZZA,PIZZA AL TAGLIO,Pizza al taglio light,,kg,Pizza al taglio altri gusti
PIZZA,PIZZA AL TAGLIO,Pizza al taglio con salmone,,kg,Pizza al taglio altri gusti
PIZZA,PIZZA AL TAGLIO,Pizza al taglio marinara,,kg,Pizza al taglio pomodoro
PIZZA,PIZZA AL TAGLIO,Pizza al taglio margherita,,kg,Pizza al taglio pomodoro e mozzarella
PIZZA,PIZZA AL TAGLIO,Pizza al taglio napoli,,kg,Pizza al taglio altri gusti
PIZZA,PIZZA AL TAGLIO,Pizza al taglio diavola,,kg,Pizza al taglio altri gusti
PIZZA,PIZZA AL TAGLIO,Pizza alla pala napoli,,kg,Pizza al taglio altri gusti
PIZZA,PIZZA AL TAGLIO,Pizza al taglio americana,,kg,Pizza al taglio altri gusti
PIZZA,PIZZA AL TAGLIO,Pizza al taglio diavola,,kg,Pizza al taglio altri gusti
PIZZA,PIZZA AL TAGLIO,Pizza al taglio funghi e mozzarella,,kg,Pizza al taglio altri gusti
PIZZA,PIZZA AL TAGLIO,Pizza al taglio parmigiana,,kg,Pizza al taglio altri gusti
PIZZA,PIZZA AL TAGLIO,Pizza al taglio capricciosa,,kg,Pizza al taglio altri gusti
PIZZA,PIZZA AL TAGLIO,Pizza al taglio parmigiano e rughetta,,kg,Pizza al taglio altri gusti
PIZZA,PIZZA AL TAGLIO,Pizza al taglio carbonara,,kg,Pizza al taglio altri gusti
PIZZA,PIZZA AL TAGLIO,Pizza al taglio rossa con i funghi,,kg,Pizza al taglio altri gusti
PIZZA,PIZZA AL TAGLIO,Pizza al taglio patate e rosmarino,,kg,Pizza al taglio altri gusti
PIZZA,PIZZA AL TAGLIO,Pizza al taglio patate e mozzarella,,kg,Pizza al taglio altri gusti
PIZZA,PIZZA AL TAGLIO,Pizza al taglio pachino e olive nere,,kg,Pizza al taglio altri gusti
PIZZA,PIZZA AL TAGLIO,Pizza al taglio radicchio e quattroformaggi,,kg,Pizza al taglio altri gusti
PIZZA,PIZZA AL TAGLIO,Pizza al taglio porcini e salsiccia,,kg,Pizza al taglio altri gusti
PIZZA,PIZZA AL TAGLIO,Pizza al taglio ciauscolo e stracchino,,kg,Pizza al taglio altri gusti
PIZZA,PIZZA AL TAGLIO,Pizza al taglio cacio e pepe,,kg,Pizza al taglio altri gusti
PIZZA,PIZZA AL TAGLIO,Pizza al taglio gricia,,kg,Pizza al taglio altri gusti
PIZZA,PIZZA AL TAGLIO,Pizza al taglio speck e provola,,kg,Pizza al taglio altri gusti
PIZZA,PIZZA AL TAGLIO,Pizza al taglio provola e pancetta,,kg,Pizza al taglio altri gusti
PIZZA,PIZZA AL TAGLIO,Pizza al taglio bresaola,,kg,Pizza al taglio altri gusti
PIZZA,PIZZA AL TAGLIO,Pizza al taglio tonno e radicchio,,kg,Pizza al taglio altri gusti
PIZZA,PIZZA AL TAGLIO,Pizza al taglio zucca e salmone,,kg,Pizza al taglio altri gusti
PIZZA,PIZZA AL TAGLIO,Pizza al taglio cudo e bufala,,kg,Pizza al taglio altri gusti
PIZZA,PIZZA AL TAGLIO,Pizza al taglio gamberetti e rughetti,,kg,Pizza al taglio altri gusti
PIZZA,PIZZA AL TAGLIO,Pizza al taglio insalata di pollo,,kg,Pizza al taglio altri gusti
PIZZA,PIZZA AL TAGLIO,Pizza al taglio tacchino e lattuga,,kg,Pizza al taglio altri gusti
PIZZA,PIZZA AL TAGLIO,Pizza al taglio tonno e pomodoro,,kg,Pizza al taglio altri gusti
PIZZA,PIZZA AL TAGLIO,Pizza al taglio mortadella e stracchino,,kg,Pizza al taglio altri gusti
PIZZA,PIZZA ALLA PALA,Pizza alla pala con nutella,,kg,Pizza alla pala con nutella
PIZZA,PIZZA ALLA PALA,Pizza alla pala  pomodoro e mozzarella,,kg,Pizza alla pala  pomodoro e mozzarella
PIZZA,PIZZA ALLA PALA,Pizza alla pala bianca (focaccia),,kg,Pizza alla pala bianca (focaccia)
PIZZA,PIZZA ALLA PALA,Pizza alla pala vegetariana,,kg,Pizza alla pala altri gusti
PIZZA,PIZZA ALLA PALA,Pizza alla pala crostino,,kg,Pizza alla pala altri gusti
PIZZA,PIZZA ALLA PALA,Pizza alla pala boscaiola,,kg,Pizza alla pala altri gusti
PIZZA,PIZZA ALLA PALA,Pizza alla pala monte Bianco,,kg,Pizza alla pala altri gusti
PIZZA,PIZZA ALLA PALA,Pizza alla pala paesana,,kg,Pizza alla pala altri gusti
PIZZA,PIZZA ALLA PALA,Pizza alla pala pere e gorgonzola,,kg,Pizza alla pala altri gusti
PIZZA,PIZZA ALLA PALA,Pizza alla pala tonda tirolo,,kg,Pizza alla pala altri gusti
PIZZA,PIZZA ALLA PALA,Pizza alla pala quattro formaggi,,kg,Pizza alla pala altri gusti
PIZZA,PIZZA ALLA PALA,Pizza alla pala bufalina,,kg,Pizza alla pala altri gusti
PIZZA,PIZZA ALLA PALA,Pizza alla pala calabrese,,kg,Pizza alla pala altri gusti
PIZZA,PIZZA ALLA PALA,Pizza alla pala light,,kg,Pizza alla pala altri gusti
PIZZA,PIZZA ALLA PALA,Pizza alla pala norvegese,,kg,Pizza alla pala altri gusti
PIZZA,PIZZA ALLA PALA,Pizza alla pala marinara,,kg,Pizza alla pala con pomodoro
PIZZA,PIZZA ALLA PALA,Pizza alla pala margherita,,kg,Pizza alla pala  pomodoro e mozzarella
PIZZA,PIZZA ALLA PALA,Pizza alla pala napoli,,kg,Pizza alla pala altri gusti
PIZZA,PIZZA ALLA PALA,Pizza alla pala diavola,,kg,Pizza alla pala altri gusti
PIZZA,PIZZA ALLA PALA,Pizza alla pala napoli,,kg,Pizza alla pala altri gusti
PIZZA,PIZZA ALLA PALA,Pizza alla pala americana,,kg,Pizza alla pala altri gusti
PIZZA,PIZZA ALLA PALA,Pizza alla pala diavola,,kg,Pizza alla pala altri gusti
PIZZA,PIZZA ALLA PALA,Pizza alla pala funghi e mozzarella,,kg,Pizza alla pala altri gusti
PIZZA,PIZZA ALLA PALA,Pizza alla pala parmigiana,,kg,Pizza alla pala altri gusti
PIZZA,PIZZA ALLA PALA,Pizza alla pala capricciosa,,kg,Pizza alla pala altri gusti
PIZZA,PIZZA ALLA PALA,Pizza alla pala parmigiano e rughetta,,kg,Pizza alla pala altri gusti
PIZZA,PIZZA ALLA PALA,Pizza alla pala carbonara,,kg,Pizza alla pala altri gusti
PIZZA,PIZZA ALLA PALA,Pizza alla pala mortadella e stracchino,,kg,Pizza alla pala altri gusti
PIZZA,PIZZE TONDE,Pizza tonda con nutella,,kg,Pizza tonda con nutella
PIZZA,PIZZE TONDE,Pizza tonda  pomodoro e mozzarella,,kg,Pizza tonda  pomodoro e mozzarella
PIZZA,PIZZE TONDE,Pizza tonda bianca (focaccia),,kg,Pizza tonda bianca (focaccia)
PIZZA,PIZZE TONDE,Pizza tonda vegetariana,,kg,Pizza tonda altri gusti
PIZZA,PIZZE TONDE,Pizza tonda crostino,,kg,Pizza tonda altri gusti
PIZZA,PIZZE TONDE,Pizza tonda boscaiola,,kg,Pizza tonda altri gusti
PIZZA,PIZZE TONDE,Pizza tonda monte Bianco,,kg,Pizza tonda altri gusti
PIZZA,PIZZE TONDE,Pizza tonda paesana,,kg,Pizza tonda altri gusti
PIZZA,PIZZE TONDE,Pizza tonda pere e gorgonzola,,kg,Pizza tonda altri gusti
PIZZA,PIZZE TONDE,Pizza tonda tirolo,,kg,Pizza tonda altri gusti
PIZZA,PIZZE TONDE,Pizza tonda quattro formaggi,,kg,Pizza tonda altri gusti
PIZZA,PIZZE TONDE,Pizza tonda bufalina,,kg,Pizza tonda altri gusti
PIZZA,PIZZE TONDE,Pizza tonda calabrese,,kg,Pizza tonda altri gusti
PIZZA,PIZZE TONDE,Pizza tonda light,,kg,Pizza tonda altri gusti
PIZZA,PIZZE TONDE,Pizza tonda norvegese,,kg,Pizza tonda altri gusti
PIZZA,PIZZE TONDE,Pizza tonda marinara,,kg,Pizza tonda pomodoro
PIZZA,PIZZE TONDE,Pizza tonda margherita,,kg,Pizza tonda pomodoro e mozzarella
PIZZA,PIZZE TONDE,Pizza tonda napoli,,kg,Pizza tonda altri gusti
PIZZA,PIZZE TONDE,Pizza tonda diavola,,kg,Pizza tonda altri gusti
PIZZA,PIZZE TONDE,Pizza tonda napoli,,kg,Pizza tonda altri gusti
PIZZA,PIZZE TONDE,Pizza tonda americana,,kg,Pizza tonda altri gusti
PIZZA,PIZZE TONDE,Pizza tonda diavola,,kg,Pizza tonda altri gusti
PIZZA,PIZZE TONDE,Pizza tonda funghi e mozzarella,,kg,Pizza tonda altri gusti
PIZZA,PIZZE TONDE,Pizza tonda parmigiana,,kg,Pizza tonda altri gusti
PIZZA,PIZZE TONDE,Pizza tonda capricciosa,,kg,Pizza tonda altri gusti
PIZZA,PIZZE TONDE,Pizza tonda parmigiano e rughetta,,kg,Pizza tonda altri gusti
PIZZA,PIZZE TONDE,Pizza tonda carbonara,,kg,Pizza tonda altri gusti
PIZZA,PIZZE TONDE,Pizza tonda mortadella e stracchino,,kg,Pizza tonda altri gusti
PIZZA,PINSA,Pinsa con nutella,,kg,PInsa con nutella
PIZZA,PINSA,Pinsa  pomodoro e mozzarella,,kg,PInsa pomodoro e mozzarella
PIZZA,PINSA,Pinsa bianca,,kg,Pinsa bianca
PIZZA,PINSA,Pinsa vegetariana,,kg,Pinsa altri gusti
PIZZA,PINSA,Pinsa crostino,,kg,Pinsa altri gusti
PIZZA,PINSA,Pinsa boscaiola,,kg,Pinsa altri gusti
,PINSA,Pinsa monte Bianco,,kg,Pinsa altri gusti
PIZZA,PINSA,Pinsa paesana,,kg,Pinsa altri gusti
PIZZA,PINSA,Pere e gorgonzola,,kg,Pinsa altri gusti
PIZZA,PINSA,Pinsa tirolo,,kg,Pinsa altri gusti
PIZZA,PINSA,Pinsa quattro formaggi,,kg,Pinsa altri gusti
PIZZA,PINSA,Pinsa bufalina,,kg,Pinsa altri gusti
PIZZA,PINSA,Pinsa calabrese,,kg,Pinsa altri gusti
PIZZA,PINSA,Pinsa light,,kg,Pinsa altri gusti
PIZZA,PINSA,Pinsa norvegese,,kg,Pinsa altri gusti
PIZZA,PINSA,Pinsa marinara,,kg,Pinsa altri gusti
PIZZA,PINSA,Pinsa margherita,,kg,Pinsa altri gusti
PIZZA,PINSA,Pinsa napoli,,kg,Pinsa altri gusti
PIZZA,PINSA,Pinsa diavola,,kg,Pinsa altri gusti
PIZZA,PINSA,Pinsa napoli,,kg,Pinsa altri gusti
PIZZA,PINSA,Pinsa americana,,kg,Pinsa altri gusti
PIZZA,PINSA,Pinsa diavola,,kg,Pinsa altri gusti
PIZZA,PINSA,Pinsa  funghi e mozzarella,,kg,Pinsa altri gusti
PIZZA,PINSA,Pinsa parmigiana,,kg,Pinsa altri gusti
PIZZA,PINSA,Pinsa capricciosa,,kg,Pinsa altri gusti
PIZZA,PINSA,Pinsa parmigiano e rughetta,,kg,Pinsa altri gusti
PIZZA,PINSA,Pinsa carbonara,,kg,Pinsa altri gusti
PIZZA,PINSA,Pinsa mortadella e stracchino,,kg,Pinsa altri gusti
PIZZA,FRITTI E NON SOLO,Supplì al ragu di manzo,,Unità,Suppli pomodoro e basilico
PIZZA,FRITTI E NON SOLO,Supplì pomodoro e basilico,,Unità,Suppli pomodoro e basilico
PIZZA,FRITTI E NON SOLO,Supplì carbonara,,Unità,Suppli pomodoro e basilico
PIZZA,FRITTI E NON SOLO,Supplì con 'nduja,,Unità,Suppli pomodoro e basilico
PIZZA,FRITTI E NON SOLO,Supplì cacio e pepe,,Unità,Suppli pomodoro e basilico
PIZZA,FRITTI E NON SOLO,Supplì radicchio e gorgonzola,,Unità,Suppli pomodoro e basilico
PIZZA,FRITTI E NON SOLO,Supplì con scampi,,Unità,Suppli pomodoro e basilico
PIZZA,FRITTI E NON SOLO,Supplì con tartufo,,Unità,Suppli pomodoro e basilico
PIZZA,FRITTI E NON SOLO,Supplì con zucchine e speck,,Unità,Suppli pomodoro e basilico
PIZZA,FRITTI E NON SOLO,Supplì con broccoli e salsiccia,,Unità,Suppli pomodoro e basilico
PIZZA,FRITTI E NON SOLO,Supplì con porcini,,Unità,Suppli pomodoro e basilico
PIZZA,FRITTI E NON SOLO,Arancini con prosciutto cotto e piselli,,Unità,Arancini con prosciutto cotto e piselli
PIZZA,FRITTI E NON SOLO,Mozzarelline fritte,,Unità,Mozzarelline fritte
PIZZA,FRITTI E NON SOLO,Verdure fritte miste,,kg,Verdure fritte miste
PIZZA,FRITTI E NON SOLO,Filetti di baccalà,,Unità,Filetti di baccalà
PIZZA,FRITTI E NON SOLO,Fiori di zucca con alici,,Unità,Fiori di zucca
PIZZA,FRITTI E NON SOLO,Olive ascolane,,Unità,Olive ascolane
PIZZA,FRITTI E NON SOLO,Crema fritta,,Unità,Crema fritta
PIZZA,FRITTI E NON SOLO,Patatine fritte,,kg,Patatine fritte
PIZZA,FRITTI E NON SOLO,Crocchette di patate,,Unità,Crocchette di patate
PIZZA,FRITTI E NON SOLO,Patate al forno,,kg,Patate al forno
PIZZA,FRITTI E NON SOLO,Anelli di cipolla fritti,,kg,Anelli di cipolla fritti
PIZZA,FRITTI E NON SOLO,Funghi fritti,,kg,Funghi fritti
PIZZA,FRITTI E NON SOLO,Pollo allo spiedo – intero,,Unità,Pollo allo spiedo – intero
PIZZA,FRITTI E NON SOLO,Pollo alla diavola – intero,,unità,Pollo alla diavola – intero
PIZZA,FRITTI E NON SOLO,Pollo allo spiedo – mezzo,,unità,Pollo allo spiedo – mezzo
PIZZA,FRITTI E NON SOLO,Pollo alla diavola – mezzo,,unità,Pollo alla diavola – mezzo
PIZZA,FRITTI E NON SOLO,Calzone ripieno pomodoro e mozzarella,,unità,Calzoni ripieni
PIZZA,FRITTI E NON SOLO,Calzone ripieno funghi e mozzarella,,unità,Calzoni ripieni
PIZZA,FRITTI E NON SOLO,Calzone ripieno cotto e mozzarella,,unità,Calzoni ripieni
PIZZA,FRITTI E NON SOLO,Suppli al pomodoro,,unità,Suppli al pomodoro
PIZZA,FRITTI E NON SOLO,Anellini cipolla fritti,,unità,Anellini cipolla fritti
PIZZA,FRITTI E NON SOLO,Olive ascolane,,unità,Olive ascolane
PIZZA,FRITTI E NON SOLO,Fiori di zucca mozzarella e alici,,unità,Fiori di zucca mozzarella e alici
