CAEGORY,TYPE,FOOD,DESCRIPTION,UNIT OF MEASURE
PESCI,CROSTACEI,Aragosta ," Senza chele, di colore rosso - violaceo, si consuma bollita e condita con ingredienti aciduli per contrastare la dolcezza delle sue pregiate carni ",kg
PESCI,CROSTACEI,Astice , Ha due grosse chele e colori vivaci; si consuma bollito o stufato nei fondi per cucinare i classici spaghetti all'astice ,kg
PESCI,CROSTACEI,Cicala di mare (Canocchia) ," Di colore grigio brillante, si consuma bollita e condita con olio, sale, pepe e prezzemolo o gratinata al forno ",kg
PESCI,CROSTACEI,Gamberetto , Gambero di taglia piccola (fino a 10 cm) ,kg
PESCI,CROSTACEI,Gambero rosso ," Il più noto è quello di Mazara del Vallo; dal sapore dolciastro e intenso, è adatto anche ad abbinamenti particolari come funghi o pancetta ",kg
PESCI,CROSTACEI,Gamberone (Mazzancolla) , Gambero di taglia grossa (oltre 15 cm) ,kg
PESCI,CROSTACEI,Granchio ," Di piccola taglia, è il crostaceo più diffuso ed è usato soprattutto in sughi e zuppe (brodetti, cacciucchi, ecc.) ",kg
PESCI,CROSTACEI,Granseola , Granchio di grossa taglia dalle carni pregiate come quelle dell'aragosta ,kg
PESCI,CROSTACEI,Magnosa (Cicala di mare) ," Grosso crostaceo di colore marrone, si cucina come l'aragosta ",kg
PESCI,CROSTACEI,Scampo ," Simile all'astice ma più piccolo e di diverso colore (rosa - arancio), è molto apprezzato in aggiunta a pasta o riso ",kg
PESCI,DI ACQUA DOLCE,Aguglia , Ha forma affusolata molto simile a quella dell'anguilla; viene cucinata fritta o al forno con pomodori ,kg
PESCI,DI ACQUA DOLCE,Alborella ," Di piccola taglia, è molto diffusa e si consuma fritta oppure in carpione ",kg
PESCI,DI ACQUA DOLCE,Anguilla (Capitone) ," Serpentiforme, le sue carni grasse e ipercaloriche si cucinano in umido o alla brace o fritte; di solito si consuma la femmina (capitone) ",kg
PESCI,DI ACQUA DOLCE,Barbo ," Simile alla carpa, si cucina al forno o al cartoccio ",kg
PESCI,DI ACQUA DOLCE,Carpa ," Di medie dimensioni, è uno dei pesci d'acqua dolce più diffusi; in cucina è preferibile quella di allevamento ",kg
PESCI,DI ACQUA DOLCE,Cavedano ," Di medie dimensioni, ha carni non particolarmente saporite ",kg
PESCI,DI ACQUA DOLCE,Cheppia (Agone) ," Di forma allungata, ha una sola pinna dorsale e pinna caudale biforcata; le carni sono piene di spine ma molto gustose ",kg
PESCI,DI ACQUA DOLCE,Lavarello (Coregone) ," Molto diffuso, ha carni morbide, delicate e molto digeribili ",kg
PESCI,DI ACQUA DOLCE,Luccio ," Di grandi dimensioni, viene cucinato in umido ma anche fritto o al forno, accompagnato da capperi, peperoni e polenta ",kg
PESCI,DI ACQUA DOLCE,Luccioperca ," Di taglia notevole, ha corpo snello e affusolato; le carni bianche e morbide sono cucinate prevalentemente al forno con patate ",kg
PESCI,DI ACQUA DOLCE,Pangasio ," Simile al pesce gatto ma più grande e più chiaro, ha carni bianche, senza spine, dal sapore delicato che cuociono velocemente ",kg
PESCI,DI ACQUA DOLCE,Persico ," Piccolo e tozzo, ha carni pregiate di solito cucinate fritte per il classico risotto ai filetti di pesce persico  ",kg
PESCI,DI ACQUA DOLCE,Pesce gatto ," Di medie dimensioni e con testa molto grande, ha carni grasse di colore giallo ocra particolarmente saporite ",kg
PESCI,DI ACQUA DOLCE,Pesce siluro ," Di grosse dimensioni, ha forma cilindrica; viene consumato prevlenetemente affumicato o essiccato ",kg
PESCI,DI ACQUA DOLCE,Salmerino ," Di notevoli dimensioni, ha carni simili a quelle della trota salmonata sia per il colore rosato che per la dolcezza ",kg
PESCI,DI ACQUA DOLCE,Storione ," Grande pesce ""primitivo"" e ormai raro, ha carni pregiate; dalle sue uova si ricava il caviale ",kg
PESCI,DI ACQUA DOLCE,Tinca ," Simile alla carpa, è molto diffuso e ha carni magre adatte soprattutto alla preparazione in carpione ",kg
PESCI,DI ACQUA DOLCE,Trota ," Molto diffuso, ha carni mediamente grasse e pelle particolarmente commestibile; la trota salmonata è una trota di allevamente sottoposta a dieta particolare ",kg
PESCI,DI MARE,Anemonia (Capelli di Venere) ," Simile a una pianta acquatica, viene consumata impanata e fritta oppure per condire la pasta assieme alla bottarga ",kg
PESCI,DI MARE,Barracuda ," Grande pesce fusiforme con pinne corte ma appuntite, viene cucinato a fette in guazzetto ",kg
PESCI,DI MARE,Black cod ," Di colore nero, ha carni bianche molto pregiate adatte a essere cucinate in ogni modo  ",kg
PESCI,DI MARE,Boga ," Caratterizzato da un occhio molto grande, è poco utilizzato in cucina ",kg
PESCI,DI MARE,Cefalo (Muggine) ," Poco ricercato per il sapore troppo intenso delle carni, va cucinato con erbe aromatiche ",kg
PESCI,DI MARE,Cernia ," Di grandi dimensioni, è molto ricercato per le carni pregiate; il modo migliore di gustarla è al forno; le lische sono ottime per le zuppe ",kg
PESCI,DI MARE,Cobia ," Piccolo squalo, ha carni analoghe a quelle del pesce spada, rosee e compatte, adatte a ogni genere di trattamento culinario ",kg
PESCI,DI MARE,Dentice ," Di medie dimensioni, è molto ricercato per le carni magre, sode e digeribili; una ricetta classica è il dentice in crosta di sale ",kg
PESCI,DI MARE,Gallinella ," Caratterizzata da pinne rosate e corpo azzurognolo, ha carni pregiate da consumare alla brace o al forno in crosta di sale ",kg
PESCI,DI MARE,Ghiozzo ," Di piccola taglia, vive soprattutto nelle zone lagunari e viene abbinato al risotto ",kg
PESCI,DI MARE,Grongo ," Simile all'anguilla, ha carni poco pregiate; viene utilizzato soprattutto nelle zuppe ",kg
PESCI,DI MARE,Halibut , Ha un corpo schiacciato e una bocca molto grande; di solito viene consumato affumicato ,kg
PESCI,DI MARE,Latterino ," Di piccola taglia, viene cucinato fritto, da solo o in paranza ",kg
PESCI,DI MARE,Leccia , Ha un corpo allungato e ovaliforme con pinna caudale biforcuta; di solito viene consumato affumicato ,kg
PESCI,DI MARE,Mormora , Ha corpo ovale e muso allungato; le sue carni sono pregiate come quelle dell'orata o della spigola ma molto spinose ,kg
PESCI,DI MARE,Murena ," Simile all'anguilla, raggiunge grandi lunghezze; viene consumata in zuppa o in agrodolca ",kg
PESCI,DI MARE,Nasello ," Simile al merluzzo, ma più piccolo e snello, ha carni delicate e facilmente digeribili; viene consumato lesso con olio, limone e prezzemolo, oppure infarinato e fritto oppure al pomodoro ",kg
PESCI,DI MARE,Occhiata ," Simile al sarago, ha carni bianche, sode e delicate ma molto spinose ",kg
PESCI,DI MARE,Ombrina ," Di medie dimensioni, ha carni tra le più pregiate adatte a varie preparazioni ",kg
PESCI,DI MARE,Orata , Caratterizzata da una fascia dorata sul capo è molto ricercata; da preferire quelle allevate in gabbia a mare ,kg
PESCI,DI MARE,Pagello (Fragolino) ," Ha corpo ovale allungato e carni sode, saporite e digeribili; si consuma alla brace, al cartoccio o al forno e si abbina bene ai capperi ",kg
PESCI,DI MARE,Palombo ," Piccolo squalo, ha carni molto apprezzate che sono prive di lische e sanno poco di pesce (vitello di mare) ",kg
PESCI,DI MARE,Pesce castagna ," Di forma alta ovale e compressa, ha carni dal sapore forte e deciso da cucinare soprattutto al forno con patate ",kg
PESCI,DI MARE,Pesce palla ," Appannaggio quasi esclusivo della cucina giapponese, va utilizzato solo da cuochi addestrati in quanto fortemente velenoso ",kg
PESCI,DI MARE,Pesce pollak ," Simile al merluzzo, ha carni delicate, digeribili e facilmente spinabili ",kg
PESCI,DI MARE,Pesce San Pietro ," Dall'aspetto bizzarro, ha carni pregiate, cucinabili in molti modi e anche nelle zuppe ",kg
PESCI,DI MARE,Pesce serra ," Di medie dimensioni, ha carni un po' coriacee ed è ottimo da consumare crudo ",kg
PESCI,DI MARE,Platessa ," Ha forma romboidale e gli occhi entrambi sullo stesso lato; le carni, profumate e digeribili, sono di un bianco lattiginoso ",kg
PESCI,DI MARE,Rana pescatrice (Coda di rospo) ," Di notevoli dimensioni e di aspetto orrido, ha carni sode e compatte; la grande testa è ottima per i brodi (fumetti) ",kg
PESCI,DI MARE,Razza ," Pesce ""primitivo"", ha carni gustose, sode e compatte ",kg
PESCI,DI MARE,Rombo ," Di forma schiacciata e romboidale, è molto apprezzato se pesa almeno due chili; classica la ricetta del rombo alla livornese con pomodori e capperi ",kg
PESCI,DI MARE,Rossetto ," Di piccolissima taglia e di colore rosato, viene commercializzato in sostituzione dei bianchetti (sardine o acciughe o pagelli neonati) la cui pesca è da tempo vietata; viene consumato crudo, con olio e limone, o nel fritto di paranza o in frittate ",kg
PESCI,DI MARE,Salpa ," Non particolarmente pregiato, viene cucinato al forno o al vapore ",kg
PESCI,DI MARE,Sarago ," Di piccole dimensioni, ha carni pregiate, saporite e digeribili; di solito vienei cucinato al sale o al forno ",kg
PESCI,DI MARE,Scorfano , Di piccole dimensioni e di aspetto orrido è ingrediente fondamentale per il cou cous e le zuppe ,kg
PESCI,DI MARE,Smeriglio ," Piccolo squalo, ha carni tenere e sapore tenue; viene consumato essiccato o a fette sulla brace ",kg
PESCI,DI MARE,Sogliola ," Ha corpo piatto e ovale e carni molto pregiate di colore bianco roseo; classica la ricetta della sogliola alla mugnaia, infarinata e rosolata nel burro ",kg
PESCI,DI MARE,Spigola (Branzino) , Ha corpo e robusto e allungato e carni pregiatissime adatta a cotture semplici ,kg
PESCI,DI MARE,Spinarolo ," Squalo di modeste dimensioni, ha carni rosee, sode e brillanti, adatte a svariate ricette ",kg
PESCI,DI MARE,Tracina ," Di piccola taglia, ha carni delicate simili a quelle della sogliola ",kg
PESCI,DI MARE,Triglia ," Di piccole dimensione, è caratterizzata dai grandi occhi e dal colore rosso giallo; quella di scoglio è molto pregiata e viene consumata soprattutto fritta ",kg
PESCI,DI MARE,Verdesca ," Grosso squalo ""primitivo"", ha carni scarsamente apprezzate da cucinare alla brace a mo' di bistecca ",kg
PESCI,DI MARE,Zanchetta ," Simile a una piccola sogliola, viene consumata intera, lisca compresa, nel fritto di paranza ",kg
PESCI,MOLLUSCHI,Abalone (Orecchia di mare) ," Ha una sola valva che protegge il corpo molle; molto pregiato, può essere consumato crudo spruzzato di limone o cotto ",kg
PESCI,MOLLUSCHI,Calamaro ," Ha corpo allungato a forma di cono di colore biancastro; le carni, sode e ipocaloriche, sono molto ricercate e vengono cucinate fritte o ripiene ",kg
PESCI,MOLLUSCHI,Canestrello ," Simile alle capesante ma più piccolo e più piatto, ha colori vivaci e viene usato per risotti e per il sugo allo scoglio ",kg
PESCI,MOLLUSCHI,Cannolicchio ," Costituito da due valve di forma rettangolare lunga e stretta, ha sapore deciso e cuoce in tempi brevissimi ",kg
PESCI,MOLLUSCHI,Capesanta ," Ha due valve grandi e diverse tra loro, una rosso scuro e una chiara; prelibata e ricercata puà essere consumata cruda o cucinata in vari modi ",kg
PESCI,MOLLUSCHI,Cozza ," Ha due valve scure e carni saporite adatte alla preparazione di antipasti e di primi piatti; celebri quelle di Portonovo (moscioli), di La Spezia (muscoli) e di Puglia (cozze pelose)  ",kg
PESCI,MOLLUSCHI,Dattero di mare ," Simile alle cozze ma di forma più stretta e allungata e colore marrone, viene consumato crudo oppure cotto con vino, aglio e prezzemolo, magari in abbinamento alla pasta ",kg
PESCI,MOLLUSCHI,Fasolare ," Grossa vongola dal colore marrone, viene consumata al gratin, o in sauté oppure per la preparazione di paste e risotti ",kg
PESCI,MOLLUSCHI,Lumachina di mare ," Simile alle lumache di terra ma più piccola, viene consumata in umido o in guazzetto ",kg
PESCI,MOLLUSCHI,Lupino di mare , Tipo di vongola di taglia piccola che si distingue per un gusto intenso ,kg
PESCI,MOLLUSCHI,Moscardino ," Simile al polpo ma più piccolo, ha corpo ovale a forma di sacco e carni pregiate da consumare prevalentemente fritte ",kg
PESCI,MOLLUSCHI,Oloturia (Cetriolo di mare) ," Simile a un grosso bruco dai colori più vari, non è molto diffuso e viene consumato prevalentemente essiccato ",kg
PESCI,MOLLUSCHI,Ostrica ," Ha due valve di forma ovale di colore grigio e consistenza viscida e molle; molto pregiata, viene consumata cruda condita con succo di limone e pepe nero ",kg
PESCI,MOLLUSCHI,Polpo , Ha forma di sacco con otto tentacoli; le sue carni sono saporite e prive di grassi e sono utilizzate prevalentemente nelle insalate di mare ,kg
PESCI,MOLLUSCHI,Riccio di mare ," E' un piccolo animale globulare ricoperto di aculei; dei ricci sono commestibili le uova, filamenti gialli - arancioni disposti a stella nel guscio; le uova sono l'ingrediente per i classici spaghetti ai ricci di mare ",kg
PESCI,MOLLUSCHI,Seppia ," Ha corpo ovale, schiacciato e circondato da una pinna che contiene una conchiglia interna (osso di seppia) e una sacca piena di inchiostro nero; l'inchiostro è la base dei classici risotti (o spaghetti) al nero di seppia ",kg
PESCI,MOLLUSCHI,Tartufo di mare ," Simile alle vongole ma più ricercato, viene consumato in sauté o utilizzato nei fondi per la preparazione di paste e risotti ",kg
PESCI,MOLLUSCHI,Tellina ," Piccola bivalve di forma triangolare, ha carni delicate utilizzate nei fondi per la preparazione di paste ",kg
PESCI,MOLLUSCHI,Totano ," Simile al calamaro ha colore rosso - arancio - violaceo, ha carni meno apprezzate in quanto meno tenere, da cuocere a lungo per ammodirle  ",kg
PESCI,MOLLUSCHI,Uovo di mare ," Piuttosto raro, ha forma cilindrica e sapore asprigno ",kg
PESCI,MOLLUSCHI,Vongola ," Costituita da due valve identiche a forma di ventaglio, si utilizza nel fondo per cucinare i classici spaghetti alle vongole ",kg
PESCI,MOLLUSCHI,Vongola verace , Tipo di vongola di taglia grande che si distingue per tenerezza e dolcezza ,kg
PESCI,PESCE AZZURRO,Acciuga (Alice) ," Piccolo pesce dalle carni biancastre e ricche di grassi; molto diffusa, viene commercializza prevalentemente sotto olio o sotto sale ",kg
PESCI,PESCE AZZURRO,Acciuga del Mar Cantabrico ," Avendo trovato nel mare a nord della Spagna e a ovest della Francia l'habitat più favorevole, è l'acciuga migliore, più grassa, carnosa e sporita ",kg
PESCI,PESCE AZZURRO,Aringa ," Piccola, panciuta e argentata, ricca di grassi acidi omega 3, si consuma prevalentementa affumicata e accompagnata da patate, cipolle e cavolfiore ",kg
PESCI,PESCE AZZURRO,Merluzzo ," Grosso pesce di forma moderatamente allungata; molto diffuso, è consumato anche sotto sale (baccalà) o essiccato (stoccafisso) ",kg
PESCI,PESCE AZZURRO,Palamita ," Simile al tonno ma decisamente più piccola, ha carni rosa scuro, quasi violacee e sapore deciso e intenso; viene consumata cruda o in saor o in abbinamento a paste e risotti ",kg
PESCI,PESCE AZZURRO,Pesce spada ," Caratterizzato dal prolungamento della mascella superiore, ha carni bianche, sode e delicate, completamente prive di spine ",kg
PESCI,PESCE AZZURRO,Ricciola ," Ha corpo lungo e affusolato e carni molto ricercate; viene consumata al forno con patate, al cartoccio o in guazzetto; particolarmente apprezzate le guance, spesso consumate in insalate ",kg
PESCI,PESCE AZZURRO,Salmone ," Tra i pesci più consumati, fresco, in scatola e affumicato; particolarmente pregiato quello pescato di fronte alla costa atlantica della Scozia ",kg
PESCI,PESCE AZZURRO,Sardina ," Simile all'acciuga, ha carni saporite e gustose, ricche di acidi grassi omega 3; viene commercializzata soprattutto sotto olio ma è ingrediente base per piatti classici come la pasta con le sarde, le sarde a beccafico, le sarde i saor ",kg
PESCI,PESCE AZZURRO,Sgombro ," Ha corpo fusiforme e longilineo e carni bianche e sode, ricchissime di acidi grassi omega 3, di sapore deciso e di consistenza oleosa; viene consumato alla griglia, in insalata o marinato ",kg
PESCI,PESCE AZZURRO,Tonno ," Unico pesce a sangue caldo, di grande taglia, ha corpo allungato e compresso ai fianchi; molto diffuso e commercializzato soprattutto in scatola, viene cucinato in vari modi; la ventresca è la carne della pancia, particolarmente grassa ",kg
