CATEGORY,TYPE,FOOD,DESCRIPTION,UNIT OF MEASURE
PASTA FRESCA,PASTA CORTA,Oriecchette,,Kg
PASTA FRESCA,PASTA CORTA,Cavatelli,,Kg
PASTA FRESCA,PASTA CORTA,Trofie,,Kg
PASTA FRESCA,PASTA CORTA,Maltagliati,,Kg
PASTA FRESCA,PASTA CORTA,Quadrucci piccoli,,Kg
PASTA FRESCA,PASTA CORTA,Gnocchi di patate,,Kg
PASTA FRESCA,PASTA CORTA,Gnocchetti palombaresi,,Kg
PASTA FRESCA,PASTA CORTA,Gnocchi di zucca,,Kg
PASTA FRESCA,PASTA CORTA,Gnocchi tricolore,,Kg
PASTA FRESCA,PASTA SFOGLIA,Sfoglia classica,,Kg
PASTA FRESCA,PASTA SFOGLIA,Sfoglia al peperoncino,,Kg
PASTA FRESCA,PASTA SFOGLIA,Sfoglia paglia e fieno,,Kg
PASTA FRESCA,PASTA SFOGLIA,Sfoglia verde,,Kg
PASTA FRESCA,PASTA SFOGLIA,Sfoglia al nero di seppia,,Kg
PASTA FRESCA,PASTA SFOGLIA,Quadrucci medi,,Kg
PASTA FRESCA,PASTA SFOGLIA,Quadrucci grandi,,Kg
PASTA FRESCA,PASTA LUNGA,Tagliatelle,,Kg
PASTA FRESCA,PASTA LUNGA,Tonnarelli,,Kg
PASTA FRESCA,PASTA LUNGA,Pappardelle,,Kg
PASTA FRESCA,PASTA LUNGA,Fettuccine medie,,Kg
PASTA FRESCA,PASTA LUNGA,Fettuccine lunghe,,Kg
PASTA FRESCA,PASTA LUNGA,Linguine,,Kg
PASTA FRESCA,PASTA LUNGA,Capellini,,Kg
PASTA FRESCA,PASTA LUNGA,Scialiatelli,,Kg
PASTA FRESCA,PASTA RIPIENA,Ravioli ricotta e spinaci,,Kg
PASTA FRESCA,PASTA RIPIENA,"Ravioli ricotta, funghi e tartufo",,Kg
PASTA FRESCA,PASTA RIPIENA,"Ravioli ricotta, farro, carota e limone",,Kg
PASTA FRESCA,PASTA RIPIENA,Ravioli ricotta e radicchio,,Kg
PASTA FRESCA,PASTA RIPIENA,Ravioli melanzane e speck,,Kg
PASTA FRESCA,PASTA RIPIENA,Ravioli alla parmigiana,,Kg
PASTA FRESCA,PASTA RIPIENA,Ravioli ricotta e noci,,Kg
PASTA FRESCA,PASTA RIPIENA,Ravioli al salmone,,Kg
PASTA FRESCA,PASTA RIPIENA,Ravioli ai carciofi,,Kg
PASTA FRESCA,PASTA RIPIENA,Raviolini con radicchio e taleggio,,Kg
PASTA FRESCA,PASTA RIPIENA,Raviolini di ricotta e spinaci,,Kg
PASTA FRESCA,PASTA RIPIENA,Tortellini di carne,,Kg
PASTA FRESCA,PASTA RIPIENA,Agnolotti di carne,,Kg
PASTA FRESCA,PASTA RIPIENA,Gocce d'oro di carne,,Kg
PASTA FRESCA,PASTA RIPIENA,Tortelloni con gorgonzola dolce e noci,,Kg
PASTA FRESCA,PASTA RIPIENA,Cappellotti funghi e salsiccia,,Kg
PASTA FRESCA,PASTA RIPIENA,Cappellotti carciofi e salsiccia,,Kg
PASTA FRESCA,PASTA AL FORNO,Lasagna al ragu,,Kg
PASTA FRESCA,PASTA AL FORNO,Lasagna funghi e piselli,,Kg
PASTA FRESCA,PASTA AL FORNO,Lasagna ai carciofi,,Kg
PASTA FRESCA,PASTA AL FORNO,Lasagna asparagi e gamberetti,,Kg
PASTA FRESCA,PASTA AL FORNO,Lasagna radicchio e speck,,Kg
PASTA FRESCA,PASTA AL FORNO,Lasagna porcini e tartufo,,Kg
PASTA FRESCA,PASTA AL FORNO,Lasagna vegetariana,,Kg
PASTA FRESCA,PASTA AL FORNO,Lasagna boscaiola,,Kg
PASTA FRESCA,PASTA AL FORNO,Lasagna Gorgonzola e noci,,Kg
PASTA FRESCA,PASTA AL FORNO,Lasagna alla crema di scampi,,Kg
PASTA FRESCA,PASTA AL FORNO,Lasagna allo scoglio,,Kg
PASTA FRESCA,PASTA AL FORNO,Cannelloni di carne,,Kg
PASTA FRESCA,PASTA AL FORNO,Cannelloni di ricotta e spinaci,,Kg
PASTA FRESCA,PASTA AL FORNO,Crespelle,,Kg
PASTA FRESCA,PASTA AL FORNO,Fagottini con formaggio e cotto,,Kg
PASTA FRESCA,PASTA AL FORNO,Fagottine formaggio e funghi,,Kg
PASTA FRESCA,PASTA AL FORNO,Rotolo ricotta e spinaci,,Kg
PASTA FRESCA,PASTA AL FORNO,Bauletti ricotta e spinaci,,Kg
PASTA FRESCA,PASTA AL FORNO,Parmigiana di melanzane,,Kg
