CATEOGRY,TYPE,FOOD,DESCRIPTION,UNIT OF MEASURE
PIZZA,PIZZA AL TAGLIO,Pizza al taglio con nutella,,kg
PIZZA,PIZZA AL TAGLIO,Pizza al taglio  pomodoro e mozzarella,,kg
PIZZA,PIZZA AL TAGLIO,Pizza al taglio zucchine e mozzarella,,kg
PIZZA,PIZZA AL TAGLIO,Pizza al taglio pala vegetariana,,kg
PIZZA,PIZZA AL TAGLIO,Pizza al taglio pala crostino,,kg
PIZZA,PIZZA AL TAGLIO,Pizza al taglio boscaiola,,kg
PIZZA,PIZZA AL TAGLIO,Pizza al taglio bianca,,kg
PIZZA,PIZZA AL TAGLIO,Pizza al taglio paesana,,kg
PIZZA,PIZZA AL TAGLIO,Pizza al taglio pere e gorgonzola,,kg
PIZZA,PIZZA AL TAGLIO,Pizza al taglio tonda tirolo,,kg
PIZZA,PIZZA AL TAGLIO,Pizza al tagliola quattro formaggi,,kg
PIZZA,PIZZA AL TAGLIO,Pizza al taglio bufalina,,kg
PIZZA,PIZZA AL TAGLIO,Pizza al taglio calabrese,,kg
PIZZA,PIZZA AL TAGLIO,Pizza al taglio light,,kg
PIZZA,PIZZA AL TAGLIO,Pizza al taglio con salmone,,kg
PIZZA,PIZZA AL TAGLIO,Pizza al taglio marinara,,kg
PIZZA,PIZZA AL TAGLIO,Pizza al taglio margherita,,kg
PIZZA,PIZZA AL TAGLIO,Pizza al taglio napoli,,kg
PIZZA,PIZZA AL TAGLIO,Pizza al taglio diavola,,kg
PIZZA,PIZZA AL TAGLIO,Pizza alla pala napoli,,kg
PIZZA,PIZZA AL TAGLIO,Pizza al taglio americana,,kg
PIZZA,PIZZA AL TAGLIO,Pizza al taglio diavola,,kg
PIZZA,PIZZA AL TAGLIO,Pizza al taglio funghi e mozzarella,,kg
PIZZA,PIZZA AL TAGLIO,Pizza al taglio parmigiana,,kg
PIZZA,PIZZA AL TAGLIO,Pizza al taglio capricciosa,,kg
PIZZA,PIZZA AL TAGLIO,Pizza al taglio parmigiano e rughetta,,kg
PIZZA,PIZZA AL TAGLIO,Pizza al taglio carbonara,,kg
PIZZA,PIZZA AL TAGLIO,Pizza al taglio rossa con i funghi,,kg
PIZZA,PIZZA AL TAGLIO,Pizza al taglio patate e rosmarino,,kg
PIZZA,PIZZA AL TAGLIO,Pizza al taglio patate e mozzarella,,kg
PIZZA,PIZZA AL TAGLIO,Pizza al taglio pachino e olive nere,,kg
PIZZA,PIZZA AL TAGLIO,Pizza al taglio radicchio e quattroformaggi,,kg
PIZZA,PIZZA AL TAGLIO,Pizza al taglio porcini e salsiccia,,kg
PIZZA,PIZZA AL TAGLIO,Pizza al taglio ciauscolo e stracchino,,kg
PIZZA,PIZZA AL TAGLIO,Pizza al taglio cacio e pepe,,kg
PIZZA,PIZZA AL TAGLIO,Pizza al taglio gricia,,kg
PIZZA,PIZZA AL TAGLIO,Pizza al taglio speck e provola,,kg
PIZZA,PIZZA AL TAGLIO,Pizza al taglio provola e pancetta,,kg
PIZZA,PIZZA AL TAGLIO,Pizza al taglio bresaola,,kg
PIZZA,PIZZA AL TAGLIO,Pizza al taglio tonno e radicchio,,kg
PIZZA,PIZZA AL TAGLIO,Pizza al taglio zucca e salmone,,kg
PIZZA,PIZZA AL TAGLIO,Pizza al taglio cudo e bufala,,kg
PIZZA,PIZZA AL TAGLIO,Pizza al taglio gamberetti e rughetti,,kg
PIZZA,PIZZA AL TAGLIO,Pizza al taglio insalata di pollo,,kg
PIZZA,PIZZA AL TAGLIO,Pizza al taglio tacchino e lattuga,,kg
PIZZA,PIZZA AL TAGLIO,Pizza al taglio tonno e pomodoro,,kg
PIZZA,PIZZA AL TAGLIO,Pizza al taglio mortadella e stracchino,,kg
PIZZA,PIZZA ALLA PALA,Pizza alla pala con nutella,,kg
PIZZA,PIZZA ALLA PALA,Pizza alla pala  pomodoro e mozzarella,,kg
PIZZA,PIZZA ALLA PALA,Pizza alla pala bianca (focaccia),,kg
PIZZA,PIZZA ALLA PALA,Pizza alla pala vegetariana,,kg
PIZZA,PIZZA ALLA PALA,Pizza alla pala crostino,,kg
PIZZA,PIZZA ALLA PALA,Pizza alla pala boscaiola,,kg
PIZZA,PIZZA ALLA PALA,Pizza alla pala monte Bianco,,kg
PIZZA,PIZZA ALLA PALA,Pizza alla pala paesana,,kg
PIZZA,PIZZA ALLA PALA,Pizza alla pala pere e gorgonzola,,kg
PIZZA,PIZZA ALLA PALA,Pizza alla pala tonda tirolo,,kg
PIZZA,PIZZA ALLA PALA,Pizza alla pala quattro formaggi,,kg
PIZZA,PIZZA ALLA PALA,Pizza alla pala bufalina,,kg
PIZZA,PIZZA ALLA PALA,Pizza alla pala calabrese,,kg
PIZZA,PIZZA ALLA PALA,Pizza alla pala light,,kg
PIZZA,PIZZA ALLA PALA,Pizza alla pala norvegese,,kg
PIZZA,PIZZA ALLA PALA,Pizza alla pala marinara,,kg
PIZZA,PIZZA ALLA PALA,Pizza alla pala margherita,,kg
PIZZA,PIZZA ALLA PALA,Pizza alla pala napoli,,kg
PIZZA,PIZZA ALLA PALA,Pizza alla pala diavola,,kg
PIZZA,PIZZA ALLA PALA,Pizza alla pala napoli,,kg
PIZZA,PIZZA ALLA PALA,Pizza alla pala americana,,kg
PIZZA,PIZZA ALLA PALA,Pizza alla pala diavola,,kg
PIZZA,PIZZA ALLA PALA,Pizza alla pala funghi e mozzarella,,kg
PIZZA,PIZZA ALLA PALA,Pizza alla pala parmigiana,,kg
PIZZA,PIZZA ALLA PALA,Pizza alla pala capricciosa,,kg
PIZZA,PIZZA ALLA PALA,Pizza alla pala parmigiano e rughetta,,kg
PIZZA,PIZZA ALLA PALA,Pizza alla pala carbonara,,kg
PIZZA,PIZZA ALLA PALA,Pizza alla pala mortadella e stracchino,,kg
PIZZA,PIZZE TONDE,Pizza tonda con nutella,,kg
PIZZA,PIZZE TONDE,Pizza tonda  pomodoro e mozzarella,,kg
PIZZA,PIZZE TONDE,Pizza tonda bianca (focaccia),,kg
PIZZA,PIZZE TONDE,Pizza tonda vegetariana,,kg
PIZZA,PIZZE TONDE,Pizza tonda crostino,,kg
PIZZA,PIZZE TONDE,Pizza tonda boscaiola,,kg
PIZZA,PIZZE TONDE,Pizza tonda monte Bianco,,kg
PIZZA,PIZZE TONDE,Pizza tonda paesana,,kg
PIZZA,PIZZE TONDE,Pizza tonda pere e gorgonzola,,kg
PIZZA,PIZZE TONDE,Pizza tonda tirolo,,kg
PIZZA,PIZZE TONDE,Pizza tonda quattro formaggi,,kg
PIZZA,PIZZE TONDE,Pizza tonda bufalina,,kg
PIZZA,PIZZE TONDE,Pizza tonda calabrese,,kg
PIZZA,PIZZE TONDE,Pizza tonda light,,kg
PIZZA,PIZZE TONDE,Pizza tonda norvegese,,kg
PIZZA,PIZZE TONDE,Pizza tonda marinara,,kg
PIZZA,PIZZE TONDE,Pizza tonda margherita,,kg
PIZZA,PIZZE TONDE,Pizza tonda napoli,,kg
PIZZA,PIZZE TONDE,Pizza tonda diavola,,kg
PIZZA,PIZZE TONDE,Pizza tonda napoli,,kg
PIZZA,PIZZE TONDE,Pizza tonda americana,,kg
PIZZA,PIZZE TONDE,Pizza tonda diavola,,kg
PIZZA,PIZZE TONDE,Pizza tonda funghi e mozzarella,,kg
PIZZA,PIZZE TONDE,Pizza tonda parmigiana,,kg
PIZZA,PIZZE TONDE,Pizza tonda capricciosa,,kg
PIZZA,PIZZE TONDE,Pizza tonda parmigiano e rughetta,,kg
PIZZA,PIZZE TONDE,Pizza tonda carbonara,,kg
PIZZA,PIZZE TONDE,Pizza tonda mortadella e stracchino,,kg
PIZZA,PINSA,Pinsa con nutella,,kg
PIZZA,PINSA,Pinsa  pomodoro e mozzarella,,kg
PIZZA,PINSA,Pinsa bianca,,kg
PIZZA,PINSA,Pinsa vegetariana,,kg
PIZZA,PINSA,Pinsa crostino,,kg
PIZZA,PINSA,Pinsa boscaiola,,kg
PINSA,Pinsa monte Bianco,,kg
PIZZA,PINSA,Pinsa paesana,,kg
PIZZA,PINSA,Pere e gorgonzola,,kg
PIZZA,PINSA,Pinsa tirolo,,kg
PIZZA,PINSA,Pinsa quattro formaggi,,kg
PIZZA,PINSA,Pinsa bufalina,,kg
PIZZA,PINSA,Pinsa calabrese,,kg
PIZZA,PINSA,Pinsa light,,kg
PIZZA,PINSA,Pinsa norvegese,,kg
PIZZA,PINSA,Pinsa marinara,,kg
PIZZA,PINSA,Pinsa margherita,,kg
PIZZA,PINSA,Pinsa napoli,,kg
PIZZA,PINSA,Pinsa diavola,,kg
PIZZA,PINSA,Pinsa napoli,,kg
PIZZA,PINSA,Pinsa americana,,kg
PIZZA,PINSA,Pinsa diavola,,kg
PIZZA,PINSA,Pinsa  funghi e mozzarella,,kg
PIZZA,PINSA,Pinsa parmigiana,,kg
PIZZA,PINSA,Pinsa capricciosa,,kg
PIZZA,PINSA,Pinsa parmigiano e rughetta,,kg
PIZZA,PINSA,Pinsa carbonara,,kg
PIZZA,PINSA,Pinsa mortadella e stracchino,,kg
PIZZA,FRITTI E NON SOLO,Supplì al ragu di manzo,,unità
PIZZA,FRITTI E NON SOLO,Supplì pomodoro e basilico,,unità
PIZZA,FRITTI E NON SOLO,Supplì carbonara,,unità
PIZZA,FRITTI E NON SOLO,Supplì con 'nduja,,unità
PIZZA,FRITTI E NON SOLO,Supplì cacio e pepe,,unità
PIZZA,FRITTI E NON SOLO,Supplì radicchio e gorgonzola,,unità
PIZZA,FRITTI E NON SOLO,Supplì con scampi,,unità
PIZZA,FRITTI E NON SOLO,Supplì con tartufo,,unità
PIZZA,FRITTI E NON SOLO,Supplì con zucchine e speck,,unità
PIZZA,FRITTI E NON SOLO,Supplì con broccoli e salsiccia,,unità
PIZZA,FRITTI E NON SOLO,Supplì con porcini,,unità
PIZZA,FRITTI E NON SOLO,Arancini con prosciutto cotto e piselli,,unità
PIZZA,FRITTI E NON SOLO,Mozzarelline fritte,,unità
PIZZA,FRITTI E NON SOLO,Verdure fritte miste,,kg
PIZZA,FRITTI E NON SOLO,Filetti di baccalà,,unità
PIZZA,FRITTI E NON SOLO,Fiori di zucca con alici,,unità
PIZZA,FRITTI E NON SOLO,Olive ascolane,,unità
PIZZA,FRITTI E NON SOLO,Crema fritta,,unità
PIZZA,FRITTI E NON SOLO,Patatine fritte,,kg
PIZZA,FRITTI E NON SOLO,Crocchette di patate,,unità
PIZZA,FRITTI E NON SOLO,Patate al forno,,kg
PIZZA,FRITTI E NON SOLO,Anelli di cipolla fritti,,kg
PIZZA,FRITTI E NON SOLO,Funghi fritti,,kg
PIZZA,FRITTI E NON SOLO,Pollo allo spiedo – intero,,unità
PIZZA,FRITTI E NON SOLO,Pollo alla diavola – intero,,unità
PIZZA,FRITTI E NON SOLO,Pollo allo spiedo – mezzo,,unità
PIZZA,FRITTI E NON SOLO,Pollo alla diavola – mezzo,,unità
PIZZA,FRITTI E NON SOLO,Calzone ripieno pomodoro e mozzarella,,unità
PIZZA,FRITTI E NON SOLO,Calzone ripieno funghi e mozzarella,,unità
PIZZA,FRITTI E NON SOLO,Calzone ripieno cotto e mozzarella,,unità
PIZZA,FRITTI E NON SOLO,Suppli al pomodoro,,unità
PIZZA,FRITTI E NON SOLO,Anellini cipolla fritti,,unità
PIZZA,FRITTI E NON SOLO,Olive ascolane,,unità
PIZZA,FRITTI E NON SOLO,Fiori di zucca mozzarella e alici,,unità
