CATEGORY,TYPE,FOOD,DESCRIPTI°ON,UNIT OF MEASURE
VERDURA,DA FRUTTO,Melanzana Nera tonda,"Polpa consistente e carnosa e quasi senza semi. La pezzatura grande e la forma rotonda consentono di realizzare fette larghe, perfette per essere stratificate nelle teglie o da grigliare sulla graticola. La proprietà di assorbire molto bene i grassi alimentari, tra cui l'olio, consente la preparazione di piatti molto ricchi e saporiti. Per questi motivi la melanzana viene consumata preferibilmente cotta.",kg
VERDURA,DA FRUTTO,Melanzana Nera lunga,"Colore nero brillante e forma cilindrica allungata, polpa bianca di ottima consistenza Molto versatile poiché che si taglia a nastri che diventano rotolini e involtini da farcire. ",kg
VERDURA,DA FRUTTO,Melanzana Viola tonda,"Varietà a frutto tondo dal bellissimo colore violetto brillante. Pianta molto produttiva. Eccellente qualità dei frutti, dal sapore delicato e dalla buona consistenza che la rende adatta a tutti gli usi in cucina. ",kg
VERDURA,DA FRUTTO,Melanzana Viola lunga,"La varietà “Violetta lunga” è una pianta particolarmente vigorosa, precoce e molto produttiva. Le melanzane sono conico - allungate, lunghe circa 20 cm, lucide e di colore violetto - scuro. ",kg,,Melanzana Perlina,"Il frutto è piccolo e dalla polpa dolce e compatta. La buccia sottile non deve essere rimossa. Ha una cottura velocissima. La sua produzione avviene tramite incroci naturali, innestando piantine su melanzane selvatiche in serra. È stata coltivata per rispondere al crescente interesse verso le melanzane di piccole dimensioni, e oggi è un prodotto completamente naturale e ricco di proprietà salutari. Originaria della Sicilia, in particolare della zona di Ragusa, questa melanzana ha avuto immediatamente un grande successo per via delle sue straordinarie qualità e del suo sapore unico.",kg
VERDURA,DA FRUTTO,Melanzana Bianca,"Ha forma rotonda o allungata; la sua polpa è tenera ma compatta, i semi al suo interno sono completamente assenti. Il sapore è deciso leggermente piccante, ed è usata per piatti particolarmente raffinati dove il sapore della melanzana domina sul resto degli ingredienti. Ottima per fritture in quanto ha la capacità di assorbire pochissimo olio e avendo una natura compatta.",kg
VERDURA,DA FRUTTO,Melanzana Striata lunga,"I frutti presentano una colorazione striata tra il viola chiaro e il bianco avorio.   Particolarmente idonea per la cottura al forno. Mediamente dolce, ricca di potassio e fosforo. Un ibrido recente non facilissimo da scovare, ma interessante. ",kg
VERDURA,DA FRUTTO,Melanzana Striata tonda,"Pianta ricca di vitamina A e C. Il frutto è rotondo, con la buccia liscia e di colore viola striato di bianco alla base. La polpa è consistente e contiene pochi semi. La melanzana striata è molto dolce e può essere usata per creare dessert alternativi, come il gelato o la marmellata.",kg
VERDURA,DA FRUTTO,Pomodoro da sugo Roma,"Pomodoro lungo, dalla buccia dura che lo rende più resistente a malattie e attacchi di parassiti, e al fatto di essere adatto alla conservazione, alla raccolta e alla lavorazione meccanizzate.  Grazie alle sue caratteristiche è la varietà preferita dall’industria. ",kg
VERDURA,DA FRUTTO,Pomodoro San Marzano rosso,"Forma a lampadina allungata, Pelle sottile, due fossette laterali, forma a lampadina allungata con una codina appuntita alla base. La  polpa è delicata, con un’amabile nota aspra. E' il re dei pomodori. Cresce nella Valle del Sarno, alle falde del Vesuvio, tra Napoli e Salerno. Il  “pomodoro San Marzano dell’Agro Sarnese-Nocerino” si può fragiare del marchio DOP. ",kg
VERDURA,DA FRUTTO,Pomodoro San Marzano Giallo,"Hanno sapore delicato, dolce e poco acido. E' ideale per condire la pasta e, in particolare, quella ripiena come ravioli o cannelloni. Il suo sapore tipicamente agrodolce si sposa bene con ripieni a base di carne o di formaggio fresco. Particolarmente adatti alla cucina di pesce. ",kg
VERDURA,DA FRUTTO,Pomodoro Piccadilly,"Il Piccadilly è un pomodorino di piccole dimensioni che trae origine dall’antico pomodoro “Vesuviano”, coltivato nel sud Italia. Per la sua consistenza farinosa è ideale per salse a cottura veloce perchè la buccia, leggera e poco consistente, si amalgama con la polpa e non richiede di essere passata.",kg
VERDURA,DA FRUTTO,Pomodoro Datterino rosso,"Il pomodoro Datterino si differenzia dalle altre tipologie di pomodoro per le dimensioni ridotte e per la tipica forma allungata a ""dattero"" (da cui il nomignolo). Rispetto alle altre varietà di pomodoro, presenta un grado zuccherino più elevato, la buccia si presenta estremamente sottile e di un intenso colore rosso brillante.  ",kg
VERDURA,DA FRUTTO,Pomodoro Datterino giallo,"Il Datterino giallo è ricco di sostanze dall'elevato potere antiossidante capaci di neutralizzare i radicali liberi. Contiene anche vitamina C, A e vitamine del gruppo B. Rispetto al pomodoro classico, non presenta acidità, è largamente utilizzato nelle ricette a base di pesce e frutti di mare. ",kg
VERDURA,DA FRUTTO,Pomodoro Ciliegino rosso,"E' tondo e piccolo, ed è uno dei pomodori più apprezzati per la dolcezza e la succosità. Coltivato soprattutto in Sicilia, sia in campo che in serra, si trova sul mercato tutto l’anno. E' chiamato anche come cherry",kg
VERDURA,DA FRUTTO,Pomodoro Ciliegino giallo,"Hanno sapore delicato, dolce e poco acido. Adatti alla cucina di pesce. ",kg
VERDURA,DA FRUTTO,Pomodoro da riso (Ramato),"E' la qualità più spesso usata per cucinare i pomodori ripieni di riso. La varietà si trova sul mercato da maggio a settembre. Il frutto è di colore rosso intenso, la buccia è liscia e sottile, facile da rimuovere, mentre la polpa è carnosa, succosa e saporita.",kg
VERDURA,DA FRUTTO,Pomodoro verde da insalata ,,kg
VERDURA,DA FRUTTO,Pomodoro Camone,"Pomodoro liscio e tondeggiante, piccolo, con sfumatura rosso-arancio nella parte inferiore e verde nella parte superiore. Consistenza croccante e polpa carnosa. E' un ibrido coltivato in serra, soprattutto in Sardegna, e si trova sul mercato da dicembre a giugno. ",kg
VERDURA,DA FRUTTO,Pomodoro nero,"Il pomodoro nero non proviene da OGM, perché è stato ottenuto dai classici incroci tra semi. E' più saporito rispetto ai pomodori a bacca rossa e deve il suo colore all’alto contenuto di antocianine, il licopene, un carotenoide che è un potentissimo antiossidante. Le antocianine presenti nei pomodori neri aiutano contro i tumori. ",kg
VERDURA,DA FRUTTO,Pomodoro Cuore di Bue,"Pomodoro da insalata costoluto, grosso e irregolare. Ha la  buccia liscia e sottile, polpa carnosa, con pochi semi e povera di acqua, sapore ricco, dolce e poco acido. ",kg
VERDURA,DA FRUTTO,Pomodoro Marmande,"Qualità molto precoce, si trova sul mercato da marzo a luglio.I frutti sono di grandi dimensioni (180-200 gr) di buona consistenza, sono leggermente schiacciati ai poli e costoluti. Ottimo l'aroma e il sapore. Da utilizzare per sughi, insalate o da mangiare fresco.",kg
VERDURA,DA FRUTTO,Pomodoro Cuore di Bue,"Il cuore di bue è forse il più famoso e  prelibato pomodoro da insalata: é chiamato così  perché è grande come il cuore di un toro. Grosso e irregolare, con buccia liscia e sottile. Il peso alla raccolta varia in genere dai 200 ai 300 grammi, benché si possano trovare frutti di quasi 800 grammi. Ha polpa carnosa e consistenza poco fibrosa. Risulta saporito al gusto, aromatico e con pochi semi nella polpa. ",kg
VERDURA,DA FRUTTO,Pomodoro Pachino IGP,"Indicazione Geografica Protetta - Pachino, un paesone del Siracusano, ha legato il suo nome a questo pomodoro diffuso ormai ovunque. Solo quelli provenienti dalla zona intorno al piccolo centro della Sicilia sud-orientale sono i veri IGP. Le tipologie sono quattro: costoluto, ciliegino, tondo liscio e a grappolo.",kg
VERDURA,DA FRUTTO,Pomodoro Casalino o Spagnoletta,"La spagnoletta è un pomodoro tipico del Lazio, meglio conosciuto a Roma e dintorni con il nome “casalino”. Dalla forma schiacciata e ricco di arricciature irregolari, gode di un sapore intenso, leggermente acidulo. A completa maturazione è di un rosso intenso e sapore delicato, leggermente acidulo e molto saporitoMolto utilizzato in tutto il Centro-Sud e in special modo tra Gaeta e Formia dove è coltivato ha forma ",kg
VERDURA,DA FRUTTO,Cetriolo,"Tipica verdura estiva di forma simile allo zucchino, buccia bitorzoluta e polpa bianco verdognola, leggermente acidula. Si consuma crudo. E' ipocalorico, composto per il 95% di acqua e ottima fonte di sali minerali, in particolare potassio e fosforo. Va preferibilmente consumato quando al tatto è duro: se la polpa non risulta soda significa che l'ortaggio non è più buono.",kg
VERDURA,DA FRUTTO,Peperone campana ,"Tutti i peperoni classici a forma di campana vengono dalla stessa pianta, il colore dipende dal diverso grado di maturazione che influisce sulla digeribilità e sul gusto. I peperoni verdi sono quelli non ancora maturi, gialli e arancioni sono intermedi, quelli rossi sono i più maturi e i più dolci. Il peperone è ricchissimo di vitamina C e di vitamina A, soprattutto quelli maturi, di colore rosso o giallo.",kg
VERDURA,DA FRUTTO,Peperone corno di bue di Carmagnola IGP,"Indicazione Geografica Protetta - Questa qualità è arrivata nella città di Carmagnola (TO) agli inizi del ‘900. Ha un colore rosso o giallo intenso e si  presenta in ben quattro forme: quadrato (un cubo con quattro punte), il corno di bue (di forma allungata e presidio Slow Food), la trottola (a forma di cuore) e il tematico (un peperone tondo schiacciato ai poli). Il peperone di Carmagnola è ottimo da usare per la bagna cauda, ma anche per fare ripieno. ",kg
VERDURA,DA FRUTTO,Peperone di Senise IGP,"Indicazione Geografica Protetta – Coltivato nell'area di Senise, in provincia di Potenza. Piccolo e di forma allungata  potrebbe ricordare un peperoncino piccante, anche per il suo colore rosso acceso. Ha sapore molto dolce e polpa quasi priva di acqua,  ottimo candidato per l'essiccazione. E' conosciuto anche con il nome di peperone crusco.  ",kg
VERDURA,DA FRUTTO,Peperone di Pontecorvo DOP,"Denominazione Origine Protetta – Viene prodotto nella provincia di Frosinone e si raccoglie fino a ottobre. Per la sua forma allungata viene anche chiamato peperone cornetto. Ha un colore rosso acceso e una buccia sottile. Si presenta anche con delle striature di verde per buona parte della superficie. Proprio grazie alla sua digeribilità in cucina è molto versatile e si può mangiar sia cotto che crudo. Ottimo per sapidità,digeribilità e dolcezza.",kg
VERDURA,DA FRUTTO,Papaccella napoletane,"La particolarità di quest’ortaggio, che lo rende tanto conosciuto e apprezzato, è il suo sapore dolce. Ha forma caratteristica: leggermente più piccola rispetto al peperone tradizionale, schiacciata e riccia. La papaccella napoletana è famosa anche per i suoi colori vivi: giallo intenso, rosso fuoco, verde acceso e una tonalità tendente al vinato.",kg
VERDURA,DA FRUTTO,Peperoni Friggitelli o friarelli,"I friggitelli derivano il proprio nome dal modo in cui vengono tradizionalmente cucinati: in padella e con molto olio. I  friggitelli vengono raccolti prima di assumere il colore rosso,  dunque si presentano verdi e piccoli, non più di 10-13 centimetri. Al gusto sono dolci e non sono piccanti. ",kg
VERDURA,DA FRUTTO,Zucca turbante (Mantovana) PAT,"Prodotto Agroalimentare Tradizionale – Conosciuta anche come “Cappello da prete” è una zucca tipica della pianura reggiana e mantovana, ha forma a turbante (da cui il nome), con la falda inferiore più o meno sviluppata e buccia grigio verde. Il peso  può variare da 1 a 5 Kg.",kg
VERDURA,DA FRUTTO,Zucca Marina di Chioggia PAT,"Autentica prelibatezza della Laguna Veneta, da cui il nome Marina. Frutto molto grosso ricoperto di grosse escrescenze; polpa giallo arancio, spessa, dolce, farinosa, priva di fibrosità, di sapore eccellente, zuccherina e molto saporita. Si conserva tutto l'inverno.",kg
VERDURA,DA FRUTTO,Zucca violina,"Prende il nome dall’omonimo strumento musicale poichè la sua linea lo ricorda. È caratterizzata da un frutto allungato di colore giallo-nocciola leggermente strozzato al centro, la buccia è rugosa e presenta delle costolature longitudinali poco profonde. La polpa è di colore arancio vivace e ha un gusto molto apprezzato. Peso medio 3-4 kg. E' apprezzata per la qualità di polpa e per la sua ottima conservabilità. Ideale per la vellutata di zucca, per risotti e per tortelli.",kg
VERDURA,DA FRUTTO,Zucca trombetta,"La zucca trombetta deve il suo nome alla particolare e caratteristica forma a manico d’ombrello che può ricordare una trombetta: se coltivata a terra, infatti, si arrotola su se stessa assomigliando, grazie anche al rigonfiamento finale dove è concentrata la maggior parte dei semi. Viene consumata quando il frutto è immaturo e di colore verde. Il peso varia da 1,5 kg a 2,5 kg.",kg
VERDURA,DA FRUTTO,Zucca di Castellazzo di Bormida PAT,"Prodotto Agroalimentare Tradizionale - Forma rotondeggiante e di medio-grossa pezzatura; la buccia è spessa e bitorzoluta, con solcature profonde dall'apice al pedice, ha una consistenza coriacea ed un colore verde. La polpa è di colore giallo-aranciato ed è delicatamente dolce.",kg
VERDURA,DA FRUTTO,Zucca lunga di Napoli,"Tipica della tradizione partenopea, è un frutto lungo, che può superare un metro di lunghezza, 20-25 cm di diametro e può pesare fino a 30 Kg. Buccia verde e sottile, che rende più facile la mondatura. La polpa, di colore arancione intenso e vivace, é dolce, con pochi semi e tanto gusto. Per questo si è meritata il nome popolare di “cucozza zuccarina”. Si raccoglie nei mesi estivi e si conserva a lungo, per tutto l'autunno. ",kg
VERDURA,DA FRUTTO,Zucca Gialla,E' una varietà molto apprezzata in cucina per il suo gusto dolce e delicato. La buccia sottile ne rende facile la lavorazione.,kg
VERDURA,DA FRUTTO,Zucchina Romanesca,"E proprio delle striature così caratteristiche e caratterizzanti della varietà Romanesca, fanno di questa piccola e chiara zucchina dalla forma stellata, la zucchina caratteristica laziale. Soda, poco acquosa, dolce e dal sapore deciso. Rinomate le zucchine della zona di Cerveteri e Maccarese, di Formia, di Terracina. Sono disponibili da maggio a novembre.",kg
VERDURA,DA FRUTTO,Zucchina Tonda,"Questo tipo è molto apprezzato in cucina per ricette che richiedano un ripieno, dal momento che la forma si presta in modo ottimale. ",kg
VERDURA,DA FRUTTO,Zucchina Nera ,"Colore verde molto scuro e uniforme, forma allungata con polpa soda. Si può consumare sia cotto che crudo. E' facilmente deperibile, infatti si può conservare in frigo non più di tre, quattro giorni.",kg
VERDURA,DA FRUTTO,Fagiolini extrafini (boby),"Hanno colore verde intenso, forma allungata e sottile. Il seme è bianco. Poveri di calorie, sono invece ricchi di Vitamina A e C.",kg
VERDURA,DA FRUTTO,Fagiolini Corallo (Taccole),"Vengono chiamati anche piattoni o fagioli mangiatutto perché sono interamente commestibili. Non c'è quindi bisogno di sgranarli per consumarli. Sono teneri ma rimangono croccanti, hanno un gusto intenso ma delicato e saziano senza apportare troppi grassi o calorie. Disponibili sul mercato da primavera inoltrata a fine estate. Inoltre sono poco calorici e non provocano quel fastidioso gonfiore intestinale tipico dei fagioli.",kg
VERDURA,DA FRUTTO,Piselli freschi,"Maggio e giugno sono i mesi  migliori per trovarli freschi sul mercato. Vengono classificati finissimi, fini e medio fini. I primi piselli della stagione sono teneri, succosi e molto dolci, mentre all’inizio dell’estate la buccia si fa meno tenera e la polpa più farinosa. ",kg
VERDURA,DA FRUTTO,Fave fresche,"Il frutto è un legume allungato, cilindrico o appiattito, terminante a punta, eretto o pendulo, glabro o pubescente che contiene da 2 a 10 semi con ilo evidente, inizialmente verdi e di colore più scuro (dal nocciola al bruno) a maturità. Disponibile sul mercato da aprile a giugno.",kg
VERDURA,DA FRUTTO,Pannocchie granoturco,"Con il termine ""pannocchia"" si indica comunemente, ma impropriamente, anche l'infiorescenza femminile di mais. Per capire quando sono pronte si osserva la barbetta, ovvero quei filamenti che fuoriescono dalla punta, quando queste sono scure allora sono pronte. Si può cucinare in diversi modi, si può mangiare intera, sgranata o tagliata a metà o a rondelle. Possono essere lessate, cotte alla griglia, al forno, alla piastra.",kg
VERDURA,DA FIORE,Cavolfiore bianco,"Verdura tipica dell'inverno. Alimento prezioso per i suoi principi nutritivi: potassio, calcio, fosforo, ferro, acido folico, vitamina C ecc. Contiene inoltre principi attivi anticancro, antibatterici, antinfiammatori, antiossidanti, antiscorbuto. Basso contenuto di calorie ed elevato potere saziante. ",kg
VERDURA,DA FIORE,Cavolfiore verde,"Detto anche cimone è parente del cavolfiore bianco, che però non essendo stato racchiuso all'interno delle foglie ha sviluppato la clorofilla. Tale clorofilla è importantissima per la produzione di emoglobina. Si coltiva da maggio fino a settembre. Eccezionale qualità del fiore, compatto di un bellissimo colore verde. Arriva a pesare sino a 1,3 kg.",kg
VERDURA,DA FIORE,Cavolfiore giallo,"Di colore giallo o arancione ha la stessa consistenza del cavolfiore bianco,un gusto leggermente più dolciastro e più pieno. E' molto più ricco di sali minerali e di beta-caroteni, preziosi antiossidanti naturali, rispetto al cavolo bianco.",kg
VERDURA,DA FIORE,Cavolfiore violetto di Catania PAT,"Prodotto Agroalimentare Tradizionale - Più gustoso rispetto al cavolfiore comune  nasce da un incrocio tra il classico cavolfiore ed una pianta di broccolo all’interno dell’Etna. Conosciuto anche come Natalino Pat, è uno dei re italiani del cavolfiore viola. Viene raccolto a gennaio, ha forma medio piccola, è compatto, il gambo e le parti interne sono bianche. ",kg
VERDURA,DA FIORE,Carciofo Romanesco IGP,"Indicazione Geografica Protetta – Chiamato anche  “cimarolo” o “mammola”, è caratterizzato da una forma sferica, compatta, con diametro superiore a 10 cm, è  senza spine e privo di peluria interna, ed è molto tenero. Le foglie (brattee) hanno un colore verde con venature tendenti al violetto. La zona di produzione del Carciofo Romanesco del Lazio IGP è circoscritta ad alcune aree delle province di Viterbo, Roma e Latina. Si raccoglie da gennaio a maggio.",kg
VERDURA,DA FIORE,Carciofo Apollo,"E' una varietà del carciofo romanesco. Ha forma globosa e un colore viola intenso con iridescenze verdi dorate nel periodo di maturazione. Ha un un capolino grosso e tenero, le foglie (brattee) compatte, spesse e molto carnose. Sul mercato da gennaio a maggio.",kg
VERDURA,DA FIORE,Carciofo Sardo DOP,"Denominazione di Origine Protetta - Ha un capolino conico allungato di colore verde, sfumature violetto-brunastre, spine di colore giallo nelle brattee e la struttura del gambo è poco fibrosa e tenera. Suo profumo è intenso e floreale e sua consistenza è tenera e croccante. Il gusto tra l' amarognolo e dolciastro. ",kg
VERDURA,DA FIORE,Carciofo Spinoso di Liguria ,"Conosciuto anche con il nome di violetto di Albenga. Capolino formato da foglie chiuse, di colore verde o violetto. Sulla pianta il gambo è tenero, dopo la raccolta la legnificazione del gambo è uno dei metodi per riconoscerne la freschezza. Un'altra caratteristica di questo prodotto è che si trova in commercio con il gambo lungo e almeno due foglie complete. Sul mercato da dicembre a maggio.",kg
VERDURA,DA FIORE,Carciofo spinoso di Sardegna DOP,"Denominazione di Origine Protetta - Ha un capolino conico allungato di colore verde, sfumature violetto-brunastre, spine di colore giallo nelle brattee e la struttura del gambo è poco fibrosa e tenera. Suo profumo è intenso e floreale e sua consistenza è tenera e croccante. Il gusto tra l' amarognolo e dolciastro. ",kg
VERDURA,DA FIORE,Carciofo violetto di Toscana,"Ha capolino di forma ovale e formato da brattee esterne viola scuro piuttosto coriacee, mentre quelle interne sono morbide e tendenti al giallo.1 ",kg
VERDURA,DA FIORE,Carciofo precoce di Chioggia,"Fiorisce da giugno ad agosto. Capolino grosso, appuntito; squame ovali, generalmente spinose. La zona tipica di produzione è attualmente limitata alle isole di Sant'Erasmo nella laguna veneta.",kg
VERDURA,DA FIORE,Broccoletti Siciliani,"Detti anche “Sparacelli""sono una qualità di broccoletti particolare che viene prodotta in Sicilia. ",kg
VERDURA,DA FIORE,Broccoletti Cima di rapa,"Sono la parte verde ancora non fiorita della rapa. Le parti della cima di rapa commestibili sono le foglie, i “bottoni” fiorali ed i fiori. Sono da consumarsi previa cottura ed hanno un sapore leggermente amarognolo e piccantino. Le orecchiette con le cime di rapa sono una delle più tipiche ricette tradizionali pugliesi. ",kg
VERDURA,DA FIORE,Fiore di zucca,Sono i fiori commestibili della zucchina e della zucca. Sono un prodotto stagionale che si raccoglie dalla primavera fino al termine dell’estate. ,kg
VERDURA,DA FOGLIA,Cavolini di Bruxelles,Sono le gemme ingrossate che si formano sul fusto o alla base delle foglie. Man mano che la pianta cresce e che i cavolini di Bruxelles si ingrossano si staccano dalla pianta.  Si raccolgono da ottobre fino a tutto febbraio.,kg
VERDURA,DA FOGLIA,Cavolo Verza,"Le foglie sono di colore verde, grinzose, e formano un cespo compatto ma meno stretto del cavolo cappuccio. Si può mangiare anche crudo. E'  utilizzato per la preparazione dei crauti.  ",kg
VERDURA,DA FOGLIA,Cavolo cappuccio bianco,"Ha foglie lisce raggruppate in un cespo compatto, di colore bianco. Le foglie, molto croccanti, possono essere mangiate crude o cotte. I cavoli bianchi sono usati per la preparazione dei crauti. ",kg
VERDURA,DA FOGLIA,Cavolo cappuccio rosso,"Ha foglie lisce raggruppate in un cespo compatto, di colore rosso. Le foglie, molto croccanti, possono essere mangiate crude o cotte. ",kg
VERDURA,DA FOGLIA,Cavolo cappuccio verde a punta,"Ha foglie lisce raggruppate in un cespo compatto, di colore verde.  Le foglie, sottili e dal sapore dolce, sono larghe e levigate e si raggruppano a strati a formare una sorta di “testa“ o cappuccio. Al centro c'è un germoglio. Può essere alto fino a 50 cm. Si raccoglie da marzo a ottobre.",kg
VERDURA,DA FOGLIA,Cavolo cappuccio cuore di bue,Varietà precocissima. Dolce e croccante. Può essere sia bianco che rosso. Si può raccogliere praticamente tutto l’anno. Testa compatta a cuore di circa 1 kg. ,kg
VERDURA,DA FOGLIA,Cavolo cinese (Bok choy),"Presenta un ceppo allungato e foglie ricce di colore bianco o verde pallido, viene utilizzato crudo o cotto, saltato in padella insieme ad altre verdure. E' presente all'interno degli involtini primavera serviti nei ristoranti cinesi. Ha foglie carnose e croccanti, dal sapore delicato e leggermente amarognolo. ",kg
VERDURA,DA FOGLIA,Cavolo marino,"È una pianta erbacea nota soprattutto in Liguria. Le foglie sono di colore glauco, fiori bianchi o rosei, molto profumati di miele. La parte che si consuma è costituita da piccoli fogliari che diventano teneri e croccanti a seguito di particolari tecniche di coltura. ",kg
VERDURA,DA FOGLIA,Cavolo nero di Toscana,"È detto anche ""Cavolo a penna"". E' una verdura invernale, tipico della cucina toscana. Ha la foglia lunga, di colore verde intenso con riflessi quasi blu,  la costola è più chiara. La superficie della foglia è piena di bolle. L'odore è acidulo. È un ingrediente fondamentale della famosa ""ribollita"" una minestra di fagioli con pane raffermo e verdure varie. E' disponibile da novembre ad aprile. Dopo le prime gelate, in cui le foglie spesse e bollose diventano più tenere e migliorano il sapore.",kg
VERDURA,DA FOGLIA,Cavolo romanesco (Broccolo romano),"Assomiglia ad un cavolfiore, ma è verde chiaro, ha una forma piramidale e tante piccole rosette, disposte a spirale, che riproducono la forma principale e si ripetono con regolarità. Disponibile da settembre, per le varietà precoci, fino alla metà di giugno.",kg
VERDURA,DA FOGLIA,Cicoria a taglio,"Tratto saliente è che, a differenza delle classiche insalate che producono un cespo unico e compatto, queste portano a maturazione foglie lunghe e dritte. Sul mercato quasi tutto l'anno.",kg
VERDURA,DA FOGLIA,Indivia Belga (Cicoria Witloof) ,"La sua coltivazione avviene prevalentemente in Belgio.  Appartiene alla famiglia delle cicorie, come il radicchio e la scarola e, proprio come queste insalate, ha un sapore amarognolo. Il suo colore chiaro è dato dalla crescita al buio dei germogli di cicoria.",kg
VERDURA,DA FOGLIA,Cicoria selvatica,Una delle erbe di campo più conosciuta e raccolta. Abbastanza semplice da riconoscere grazie al suo fiore blu indaco. La forma della foglia è lanceolata con lobi molto incisi e spesso presenta venature rossastre lungo le foglie.  La raccolta delle foglie ad uso alimentare avviene tra marzo e novembre con una pausa estiva durante il momento della fioritura.,kg
VERDURA,DA FOGLIA,Cicoria Catalogna di Gaeta (Puntarelle) PAT,"Prodotto Agroalimentare Tradizionale. Sapore amarognolo. Ve ne sono due tipi: uno più alto, eretto e amaro, consumato di solito previa cottura; il secondo, più basso e a costa larga, è caratterizzato da germogli che si nascondono all'interno del cespo. I germogli, sfilettati e consumati crudi, vengono chiamati nel Lazio puntarelle, piatto tipico della cucina romana.",kg
VERDURA,DA FOGLIA,Lattuga Iceberg,"Di forma rotonda, dalle foglie molto larghe, concave e rugose, e dalla consistenza croccante. È il tipo di lattuga più utilizzato in cucina per le guarnizioni, e, dato che resiste anche al calore, è spesso utilizzata nella preparazione degli hamburger. ",kg
VERDURA,DA FOGLIA,Lattuga Gentilina,"Varietà da cespo e da taglio. Cespo aperto con foglie a bordo frastagliato, tenere e dolci. Si presenta sia verde che rossa. Sul mercato da giugno a novembre.",kg
VERDURA,DA FOGLIA,Lattuga Indivia Scarola,"Pianta dalle foglie larghe e lisce, con bordi appena frastagliati, caratterizzata da una consistenza croccante e da una leggera tonalità amarognola. Si presenta come un cespo piuttosto aperto di foglie verde tenero che tende al giallo man mano che ci si avvicina al cuore. Le foglie con nervature evidenti la rendono particolarmente croccante sotto i denti. E’ un ortaggio tipicamente autunnale e invernale, anche se la coltivazione in serra la rende disponibile praticamente tutto l’anno. ",kg
VERDURA,DA FOGLIA,Lattuga Indivia Riccia,"Facilmente riconoscibile per le foglie crespate e molto frastagliate, che devono essere compatte e ben turgide anche all’esterno. L’indivia riccia viene sempre consumata cruda, meglio ancora se combinata con altre varietà di insalata. Sul mercato prevalentemente nei mesi invernali.",kg
VERDURA,DA FOGLIA,Lattuga Canasta,"Il cespo è di grandi dimensioni e molto voluminoso per il disporsi ampio delle foglie, sufficientemente ondulate e a volte bollose. Si presenta  croccante e con un sapore abbastanza marcato. ",kg
VERDURA,DA FOGLIA,Lattuga Cappuccina-Trocadero,"Pianta a cespo voluminosa, foglie larghe di colore verde intenso all’esterno e un cuore bianco-giallo all’interno. Nelle sue varietà si presenta con foglie che cambiano nel colore, nelle dimensioni e che possono essere da lisce a medio bollose.  Si consuma sia cruda che cotta. Disponibile ",kg
VERDURA,DA FOGLIA,Lattuga Iceberg,"Il nome, che richiama le montagne di ghiaccio  galleggianti, arriva proprio dagli USA, dove nel XIX secolo questo tipo di insalata  viaggiava dai freschi  luoghi di produzione a quelli più assolati al sud su vagoni ferroviari ricoperti da ghiaccio, per mantenerne intatte  la freschezza e la croccantezza. I cespi vengono imballati sul campo e poi passati in ambienti freddi per eliminare ogni  residuo di calore che potrebbe farli marcire. In vendita per 12 mesi l’anno. Si conserva  bene anche per 3 settimane.",kg
VERDURA,DA FOGLIA,Lattuga Romana,"Si presenta con un cespo lungo e stretto, molto voluminoso. Le sue foglie di color verde brillante hanno un andamento ondulato. La consistenza è croccante e il sapore è molto dolce. Sul mercato quasi tutto l'anno.",kg
VERDURA,DA FOGLIA,Lattuga Valeriana (Songino),"Nota anche come soncino o songino, valerianella, gallinella, dolcetta o serzetto, è un'insalata particolare: si presta come decorazione per secondi piatti e pietanze, grazie alle foglioline tonde e a cuore, ed è un'insalata verde delicata, gustosa e nutriente. Si trova sul mercato tutto l'anno.",kg
VERDURA,DA FOGLIA,Porro,"Si presenta come un bulbo cilindrico affusolato, appena rigonfio. Può avere varie dimensioni, la qualità gigante misura oltre 30 cm. Si utilizza la parte inferiore bianca, e va consumarlo fresco, altrimenti acquisisce un sapore acre. Se utilizzato crudo va tagliato al momento, perchè si ossida facilmente. Ha un gusto simile a quello della cipolla. È un ortaggio sia autunnale che invernale.",kg
VERDURA,DA FOGLIA,Bietola da costa Rossa,"Questa varietà ha le coste fogliari rosse, mentre le fogli sono verdi screziate di rosso. Hanno dimensioni inferiori a quelle a costa verde e sapore molto dolce. Si consumano sia le foglie che le coste fogliari, cioè la parte iniziale delle foglie. Disponibili sul mercato dall’inizio di marzo fino a novembre inoltrato.",kg
VERDURA,DA FOGLIA,Bietola da costa Bianca,"Si consumano sia le foglie che le coste fogliari, cioè la parte iniziale delle foglie, bianca e più spessa. In alcune qualità le foglie hanno la prevalenza e vengono consumate come gli spinaci. Disponibili sul mercato dall’inizio di marzo fino a novembre inoltrato.",kg
VERDURA,DA FOGLIA,Bietola da costa Gialla,"Questa varietà ha le coste fogliari gialle, mentre le fogli sono verdi leggermente screziate di giallo. Hanno dimensioni inferiori a quelle a costa verde e sapore molto dolce. Si consumano sia le foglie che le coste fogliari, cioè la parte iniziale delle foglie. Disponibili sul mercato dall’inizio di marzo fino a novembre inoltrato.",kg
VERDURA,DA FOGLIA,Spinaci,"Gli spinaci sono ortaggi dalla tipica foglia verde carnosa, tipicamente invernali e sono fra le verdure fresche più utilizzate nelle cucine italiane. Possono essere mangiate crude in insalata, lessate o saltate in padella. La disponibilità sul mercato si differenzia a seconda della varietà e varia tra autunno/inverno e primavera.",kg
VERDURA,DA FOGLIA,Radicchio rosso lungo,"Dal colore rosso intenso e dal distintivo sapore leggermente amarognolo, questo radicchio è una vera eccellenza italiana. Da consumare preferibilmente cotto, è particolarmente adatto ad essere grigliato. ",kg
VERDURA,DA FOGLIA,Radicchio rosso/verde da taglio,"Il radicchio da taglio è, fra le insalate, una delle più facili da coltivare.  Tenero e dolce se raccolto molto giovane, a 5/7 cm di altezza.  Sapore gradevolmente amarognolo se lasciato crescere e quindi “invecchiare” maggiormente. ",kg
VERDURA,DA FOGLIA,Radicchio di Verona IGP,"Indicazione Geografica Protetta. Di forma sferoidale, ha foglie rotondeggianti che in autunno si chiudono a formare un grumolo compatto. La nervatura principale è bianca e molto sviluppata; il lembo fogliare è rosso e privo di frastagliature ai margini. Sapore gradevolmente amarognolo e croccante nella consistenza. Si distingue dal radicchio di Treviso perché è più corto e più tondo.",kg
VERDURA,DA FOGLIA,Radicchio rosso di Chioggia IGP,"Indicazione Geografica Protetta. Grandi foglie rotondeggianti, con colorazione amaranto e nervature centrali bianche, che formano un grumolo sferico o leggermente schiacciato all'apice.  . Ha un gusto leggermente amarognolo e una consistenza croccante, viene consumato principalmente crudo in insalate. Consistente e compatto, può sfiorare il mezzo chilo.",kg
VERDURA,DA FOGLIA,Radicchio rosso di Treviso tardivo IGP ,"Indicazione Geografica Protetta. Si presenta nella tipica forma lanceolata, con germogli regolari e compatti che tendono a chiudersi all’apice. Ha colore rosso scuro intenso, striature bianche, una consistenza croccante e gusto delicatamente amarognolo. Proviene unicamente dall’area tipica posta fra le province di Treviso, Padova e Venezia e deve essere ottenuto secondo la tradizionale tecnica di forzatura ed imbianchimento. ",kg
VERDURA,DA FOGLIA,Radicchio Variegato di Castelfranco IGP,"Indicazione Geografica Protetta. Unico radicchio a foglia chiara color verde-giallino o giallo crema, macchiato in rosso, di forma globosa ricorda quella di una rosa aperta.  Le sue foglie leggermente arricciate si presentano con variegature distribuite in modo equilibrato su tutta la superficie, con venature distribuite su tutta la superficie. Sapore delicatamente amarognolo.",kg
VERDURA,DA FOGLIA,Rucola o rughetta,"Le foglie, lanceolate per forma, hanno colore verde pallido e si dipartono da fusti glabri e molto ramificati. Hanno un odore caratteristico e un sapore decisamente acidulo che, più lieve a primavera, si intensifica poi con l'avanzare delle stagioni.",kg
VERDURA,DA FOGLIA,Agretti (Barba dei frati),"La pianta ha fusto legnoso e varie ramificazioni che danno vita alle foglie commestibili, gli agretti, riunite in cespuglietti molto sottili, quasi tubolari come l'erba cipollina, di colore verde scuro carico, quasi brillante e hanno la base rossiccia e dura, quasi pungente. Il sapore è acre, acidulo. Sul mercato in primavera. La raccolta degli agretti avviene in primavera, prima che la pianta fiorisca, in un periodo di tempo molto limitato; sul mercato, infatti, la barba del frate rimane circa un mese tra aprile e maggio.",kg
VERDURA,DA FOGLIA,Rabarbaro,"Della pianta si consumano unicamente i gambi che possono assumere diverse colorazioni: tra il verde chiaro e il rosso acceso, ma anche bianchi o giallastri a seconda della varietà. Le foglie sono di ampie dimensioni e di color verde smeraldo, ma non commestibili. Il periodo di raccolta va dalla tarda primavera a fine estate.",kg
VERDURA,ERBE SELVATICHE,Borragine,"Ha proprietà officinali, è ottima da mangiare e utile contro i disturbi delle vie respiratorie. E' sempre importante però prima farla bollire in modo tale da ridurre la presenza di alcune sostanze potenzialmente tossiche per il fegato.",kg
VERDURA,ERBE SELVATICHE,Certifoglio,"E' considerato il fratello sconosciuto del prezzemolo.  Cresce prevalentemente nelle zone boschive. Il suo aroma delicato ricorda in parte il profumo del basilico e dell’anice.  Il colore del fogliame è verde chiaro e i fiori bianchi sono riuniti in un’infiorescenza a ombrello. Tutte le parti della pianta emanano il loro caratteristico aroma, meno pungente una volta essiccate. ",kg
VERDURA,ERBE SELVATICHE,Spinacio selvatico (Chenopodio),"Lo spinacio di montagna, conosciuto anche come “buon Enrico”, è una pianta erbacea dalla crescita spontanea. Chiamato anche “Farinello” per la sua caratteristica sostanza bianca cerosa presente sul fusto e sulle foglie, tecnicamente chiamata “pruina”, che la rende facilmente riconoscibile. E’ largamente diffuso nei pascoli di alta montagna e nei prati erbosi. Si tratta di un vegetale perenne, alto circa 30 centimetri. Presenta numerose foglie, farinose, grandi e triangolari. Il periodo di raccolta dello spinacio di montagna va dal mese di maggio al mese di agosto. ",kg
VERDURA,ERBE SELVATICHE,Crescione,"La varietà di crescione più utilizzata è quello d'acqua. Le foglie, variano di colore dal verde scuro al bronzo, hanno forma ovale. Dal sapore caratteristico, pungente, ha molte proprietà nutrizionali. Viene utilizzato in cucina per insalate, vellutate, minestre. Contiene un’elevata quantità di vitamina C, tanto che nei secoli passati veniva chiamato ""erba da scorbuto"".",kg
VERDURA,ERBE SELVATICHE,Ortica,"Pianta erbacea perenne, alta fino a 150 cm, con rizoma ramificato, strisciante, cavo all'interno e ramificato alla base, con fusto quadrangolare. Le foglie sono ovali, opposte, dal lungo picciuolo, allungate e dentate al margine.",kg
VERDURA,ERBE SELVATICHE,Portulaca,"Conosciuta anche come erba porcellana è una pianta succulenta, alta al massimo 20 cm, caratterizzata da fusti rossi e foglie carnose e da un portamento strisciante. Formata da rami e foglie carnose è presente come spontanea in tutta Italia.",kg
VERDURA,ERBE SELVATICHE,Tarassaco,"Conosciuto anche come dente di leone è un'erba spontanea diffusa in tutto il territorio italiano, si trova ovunque in natura: campi, bordi delle strade, pascoli fino a 2000 metri di altitudine. Il gusto delle foglie di tarassaco è molto amaro, se le si raccoglie giovani sono tenere e si possono mangiare fresche in insalata, altrimenti vanno cucinate lessandole. Di questa pianta si possono cogliere oltre alle foglie anche i boccioli dei fiori e le radici.",kg
VERDURA,ERBE SELVATICHE,Cicoria selvatica,"Semplice da riconoscere grazie al suo fiore blu indaco diviene ottimo ingrediente per ricette della cucina contadina. Cresce spontanea nei terreni incolti e negli argini delle aree coltivate e può arrivare anche a 60 centimetri. Le foglie della cicoria sono simili ad altre foglie del gruppo dei cosiddetti “radicchi di campo” come il tarassaco. La forma della foglia è lanceolata con lobi molto incisi e spesso presenta venature rossastre lungo le foglie.",kg
VERDURA,ERBE SELVATICHE,Misticanza,"Un’erba che si scrive al singolare, ma custodisce nei sapori e nella semantica tutte le sfumature della poliedricità, essendo formata da un bouquet variabile di erbe selvatiche, un tempo raccolte da mani ",kg
VERDURA,ERBE SELVATICHE,Finocchio selvatico,"E' un'erbacea perenne rustica, di considerevoli dimensioni, ha un profumo molto più intenso di quello del finocchio coltivato. Del finocchio selvatico si utilizzano i germogli, le foglie, i fiori e i frutti, impropriamente chiamati ""semi"". Si possono raccogliere i semi all'inizio dell'autunno, quando è avvenuta la trasformazione del fiore in frutto. Le ""barbe"" o foglie e i teneri germogli si possono cogliere dalla primavera all'autunno inoltrato. ",kg
VERDURA,ERBE SELVATICHE,Rughetta,"La rughetta selvatica a differenza di quella coltivata, presenta steli più lunghi e sottili, foglie con margini dentellati, fiori gialli e sapore decisamente più intenso e piccante. I germogli e le foglie di questa pianta raccolti dalla tarda primavera fino all’autunno inoltrato sono ottime sia crude e sia cotte.",kg
VERDURA,DA FUSTO,Asparago di mare (Salicornia),"Caratteristica di acquitrini salmastri in particolare dell'area mediterranea, la sua forma allungata e il colore verde intenso ricorda proprio quello degli asparagi selvatici: da qui il suo nome. Ha proprietà depurative, rinfrescanti e antiscorbutiche, apporta iodio e ha un effetto calmante. Si consumano e si cucinano gli steli, raccolti prevalentemente nel periodo estivo. Consumata tal quale risulta molto salata, per cui necessita di un ammollo in acqua per 24 ore.",kg
VERDURA,DA FUSTO,Asparago comune,"La pianta ha un fusto sotterraneo che si allunga all'inizio dell'estate e tende a portarsi verso la superficie del terreno. Tali fusti, detti turioni, sono di colore bianco finché non spuntano in superficie, a contatto con la luce diventano dapprima di colore rosa e violaceo, e poi verde più o meno intenso. Il turione rappresenta la parte edibile degli asparagi, tenera e carnosa, di sapore dolciastro che ricorda quello dei germogli di bambù.",Mazzetto
VERDURA,DA FUSTO,Asparago selvatico,"Si consuma la cima del germoglio, detta turione, che ha un sapore amarognolo. Germogliano in primavera e sono molto più piccoli e sottili di quelli comuni, ma sono anche più saporiti dei comuni asparagi coltivati. ",Mazzetto
VERDURA,DA FUSTO,Asparago di Badoere verde IGP,"Indicazione Geografica Protetta – Prodotto tipico del Veneto viene coltivato in un'area compresa tra i corsi dei fiumi Sile e Dese (provincie di Treviso, Padova e Venezia). Ha un gusto ben più marcato rispetto alla varietà bianca, con un aroma fruttato e un sapore erbaceo duraturo. I turioni, ben formati, dritti e mai vuoti, sono caratterizzati da un colore bianco-rosato. ",Mazzetto
VERDURA,DA FUSTO,Asparago di Badoere bianco IGP,"Indicazione Geografica Protetta -  Prodotto tipico del Veneto viene coltivato in un'area compresa tra i corsi dei fiumi Sile e Dese (provincie di Treviso, Padova e Venezia). Più dolce rispetto alla varietà verde, non si presenta acido e salato ma tenero al palato e privo di qualsivoglia fibrosità. I turioni, ben formati, dritti e mai vuoti, sono caratterizzati da un colore bianco-rosato.",Mazzetto
VERDURA,DA FUSTO,Asparago rosa di Mezzago De.C.O.,"Denominazione Comunale di Origine - Il germoglio, detto turione, si contraddistingue per il caratteristico l’apice rosato e la rimanente parte completamente bianca.  Il colore rosa è dovuto ad un terreno particolarmente ferroso e alla ridotta esposizione alla luce dei turioni che, non appena spuntati, vengono coperti da teli di plastica scuri.",Mazzetto
VERDURA,DA FUSTO,Asparago violetto di Albenga,"Inconfondibile, per i turioni medio-grossi e per il colore viola intenso che gradatamente sfuma scendendo verso la base, è una varietà unica al mondo. Il suo colore strano non dipende dalla tecnica di coltivazione, ma è legato al suo patrimonio genetico.",Mazzetto
VERDURA,DA FUSTO,Asparago verde di Altedo IGP,"Indicazione Geografica Protetta - E' caratterizzato da un colore vivo e da un sapore delicato e leggermente amaro. L’assenza di elementi fibrosi lo rende particolarmente tenero e ai fini della commercializzazione è importante che presenti dei turioni interi, dall’aspetto sano, fresco e ben formato.",Mazzetto
VERDURA,DA FUSTO,Asparago bianco di Bassano DOP,"Denominazione Origine Protetta -  E' di colore bianco e ha lunghezza tra i 18 e i 22 cm dal diametro centrale minimo di 11 mm, con turioni ben formati, dritti, interi con apice serrato, teneri e non legnosi, di aspetto e odore fresco",Mazzetto
VERDURA,DA FUSTO,Gobbo,"La denominazione gobbo gli deriva dalla tecnica di coltivazione cui è sottoposto. Quando i gobbi sono già alti e rigogliosi, vengono piegati e ricoperti di terra, lasciando le punte delle foglie alla luce. È qui che, tentando di liberarsi per ritrovare la luce, si gonfiano e si incurvano trasformandosi in cardi gobbi: le coste perdono ogni traccia di clorofilla, diventando bianchissime e tenere. Sono sul mercato da ottobre a dicembre.",Mazzetto
VERDURA,DA FUSTO,Finocchio ,"Il finocchio dolce è un ortaggio annuale o biennale con radice a fittone, cioè a cono. Quello che si mangia è in realtà una guaina fogliare bianca e carnosa, che si sviluppa attaccata al terreno e viene chiamata grumolo. Con le foglie può arrivare fino a 80 cm di altezza. È una verdura invernale, che comincia in autunno e arriva fino a primavera.",kg
VERDURA,DA FUSTO,Sedano,"Cespo con vigorose costole carnose costituite dai piccioli delle foglie vere e proprie che sono composte, di un bel colore verde intenso e spesso lucente; le costole presentano delle scanalature e possono essere di colore verde più o meno scuro ma anche gialle (chiaro o dorato) o rosso-viola. Disponibile tutto l'anno.",kg
VERDURA,DA RADICE,Sedano rapa (Sedano di Verona),"Si mangia la radice barbuta, globosa e bitorzoluta che si presenta bruna esternamente e bianca all'interno. Le foglie, invece, sono verde scuro e gli steli sono cavi all'interno. L'aspetto generale è poco invitante ma questo è ben compensato dal suo sapore delicato. Sul mercato nel periodo invernale. ",kg
VERDURA,DA RADICE,Pastinaca,"Si presenta come una grossa radice  esternamente di color avorio-nocciola mentre la polpa è bianca e profumata. A livello gustativo somiglia molto alla patata, anche se più acidula. Ama particolarmente il freddo invernale, la radice infatti si sviluppa in spessore se l'inverno è molto lungo e rigido. ",kg
VERDURA,DA RADICE,Barbabietola,"E' un tubero caratterizzato da un colore rosso-violaceo dovuto alla presenza di betalaine, dalla notevole attività antiossidante e antinfiammatoria, è anche un’alleata naturale per preservare la vista. Si può acquistare fresco solo durante il periodo autunnale. Si consuma prevalente la radice, ma anche le foglie sono ottime perché ricche di vitamine; è dunque consigliato mangiare entrambi le parti. Ha forma simile a quella della barbabietola, ma la si riconosce da una pellicola rossa che la ricopre da cima a fondo, dalla radice alle foglie anch’esse rubino e a forma a cuore. Il caratteristico colore rosso delle radici è dato dalla presenza di un colorante naturale molto intenso, utilizzato soprattutto nell’industria alimentare (E 162). Si consuma cotta. Disponibile sul mercato d'estate e nel tardo autunno, dipende dalla varietà.",kg
VERDURA,DA RADICE,Carota arancione,"Radice dal caratteristico colore arancione, anche se in origine le carote erano fra il porpora e il viola. Ora sono arancioni perché alla fine del 1600, in Olanda, per rendere onore alla dinastia degli Orange, alcuni coltivatori iniziarono a selezionare con cura le sementi per dare all’ortaggio il caratteristico colore arancione. Disponibili sempre sul mercato quelle cresciute in serra.",kg
VERDURA,DA RADICE,Carota viola,La carota viola si produce principalmente a Polignano a Mare (Bari) e a Tiggiano (Lecce)dove  è stata inclusa nella lista dei Prodotti Agroalimentari Tradizionali (PAT) della Puglia. Si può trovare sui banchi dei mercati locali solo tra dicembre e marzo.,kg
VERDURA,DA RADICE,Ravanello giapponese (Daikon) ," E' una radice bianca di origine asiatica molto utilizzata in Giappone. Daikon significa grande radice, infatti arriva talvolta a superare i 30 cm di lunghezza. Si consuma fresco, secco o sotto forma di germogli, all'interno di insalate, zuppe, minestre.",kg
VERDURA,DA RADICE,Ravanello,"E' chiamato anche radice, ramolaccio, ravano. rapastrello, rafanistro. E' una radice e può essere di forma sferica, ovoidale, sferico-conica, cilindro-conica o allungata. il colore esterno, secondo le diverse varietà, si presenta di colore rosso, rosso vivo, rosso con punta bianca, rosa con punta bianca, bianco, bianco-variegata ecc. La polpa è di colore bianco, con tessuto di consistenza fine ed uniforme. Il sapore, secondo le varietà, può variare dal dolce al piccante al molto piccante. Sul mercato da aprile a settembre.",kg
VERDURA,DA RADICE,Cipolla dorata di Parma,"Bulbo che va dal giallo paglierino al dorato brillante a forma di trottola, grosso e sodo. Polpa e tuniche interne consistenti e di colore bianco avorio e sapore forte. Particolarmente resistente e conservabile.",kg
VERDURA,DA RADICE,Cipolla di Cannara PAT,"Prodotto Agroalimentare Tradizionale – Viene prodotta in tre varietà: la cipolla rossa, la cipolla dorata e la cipolla Borrettana. Hanno tutte un sapore incredibilmente dolce e facilmente digeribile. Le cipolle rosse sono quelle più dolci: hanno un bulbo tondeggiante di colore rosso ramato. Le cipolle dorate hanno un bulbo che è più simile a quello di una trottola e il colore è giallo paglierino. Le cipolle Borrettane hanno un bulbo appiattito e un colore che vira al giallo ambrato.  ",kg
VERDURA,DA RADICE,Cipolla di Giarratana PAT,"Prodotto Agroalimentare Tradizionale – è una varietà di cipolla, dolce e dalle dimensioni considerevoli, con bulbi dalla forma schiacciata e tunica di colore bianco-brunastro. Polpa bianca, sapida, mai pungente, pesano normalmente circa 500 grammi, ma che possono anche superare i due chilogrammi. ",kg
VERDURA,DA RADICE,Cipolla rossa di Breme DECO,"Denominazione Comunale di Origine -  Soprannominata “la Dolcissima” ha un bulbo di grandi dimensioni, fino a due chili, esternamente ed internamente rosso. Sapore forte e pungente, ma molto dolce, odore molto forte. ",kg
VERDURA,DA RADICE,Cipolla rossa di Tropea IGP,"Indicazione Geografica Protetta - Ha un bulbo rotondo, con un involucro esterno dal colore rosso acceso e una “polpa” color vinaccia. Ne esistono due tipologie “a mezza campana” o “tronco-conica”, tenerissima, dal sapore squisitamente agrodolce; quella ovale, “allungata” o tardiva, dal gusto forte.",kg
VERDURA,DA RADICE,Cipollotto nocerino DOP,"Denominazione di Origine Protetta – Si caratterizza da un calibro alla raccolta di 2-4 cm (fa parte delle cipolle di medio-piccole dimensioni), bulbo tunicato di forma cilindrica, schiacciata ai poli, con leggero ingrossamento alla base fogliare. Le tuniche interne ed esterne sono interamente bianche, polpa succulenta e di sapore dolce, foglie di color verde intenso, di forma lineare terminante a punta. E' una cipolla a raccolta primaverile (da marzo a giugno) ed è utilizzata soprattutto per il consumo fresco.",kg
VERDURA,DA RADICE,Scalogno,"Il bulbo è tunicato come quello della cipolla, ma più piccolo (generalmente il suo diametro una volta pelato non supera i 4–5 cm), ed è spesso composto da due o tre più piccoli bulbilli uniti in un bulbo tunicato unico poco più grande, nel complesso leggermente più affusolato della cipolla. In genere raggiunge un peso che varia da 5 a 25 grammi circa ed è di diverse varietà, che si distinguono tra loro in funzione del colore delle guaine esterne (verde violaceo, rosso, rosso-bruno, rosso rosaceo, viola, giallo, grigio e bianco), della loro forma (sferica, rotondeggiante e allungata) e infine dal sapore, il quale è molto influenzato anche dalla zona di coltivazione. ",kg
VERDURA,DA RADICE,Scalogno di Romagna IGP,"Indicazione Geografica Protetta - Presenta una forma piriforme. Di colore bianco violaceo, si presenta avvolto in una pellicola esterna di colore ramato-rossastro. Il sapore è decisamente particolare, più forte e profumato di quello della cipolla e più dolce di quello dell'aglio. Quando viene cotto, è anche molto più digeribile della cipolla e non lascia alito cattivo.  Un tempo, rappresentava la colazione e la merenda dei contadini insieme al pane.",kg
VERDURA,DA RADICE,Aglio bianco,"E' una pianta bulbosa formata da tanti bulbilli, detti anche spicchi, da 6 a 10 per ogni bulbo. Ogni spicchio è avvolto da membrane proprie, e tutti sono racchiusi in una membrana di somiglianza cartacea. L’odore è caratteristico e non ha bisogno di descrizioni. Esistono veramente tante varietà di Allium quelle però di uso più comune sono due: Aglio bianco tardivo e con un elevata produzione, e l’aglio rosa una varietà precoce e meno resistente.",kg
VERDURA,DA RADICE,Aglio orsino,"Questa erba spontanea aromatica così gradevole all’aspetto – tanto da essere coltivata anche come pianta ornamentale in giardini ed aiuole – è il cibo preferito degli orsi che, appena si svegliano dal lungo letargo invernale, ne ingurgitano grandi quantità per riacquistare le forze e riattivare le funzioni vitali (da qui l’appellativo ‘orsino’). Molto diffusa nei luoghi umidi, nei prati, accanto ai ruscelli, ai laghi e nei boschi ombrosi, l’aglio orsino fiorisce in primavera ed è conosciuto fin dall’antichità per le sue  molteplici proprietà benefiche. Oltre all’interessante bulbo se ne consumano le foglie, come erbe per insalata o verdure da cuocere; il fusto, come si utilizzerebbe l’erba cipollina o un aglietto; e persino le infiorescenze, dal profumo gradevole, con cui si possono condire le insalate, aromatizzare l’olio o i formaggi durante la loro stagionatura. ",kg
VERDURA,DA RADICE,Aglio Rosso di Trapani DOP,"Denominazione di Origine Protetta - E' formato da 12 bulbilli ricoperti da una pellicina rossa, chiamata tunica interna, mentre la tunica esterna che avvolge tutti i bulbilli rimane comunque di colore bianco. La sua raccolta avviene solitamente la sera per permettere di avere un po’ più di acqua all’interno delle foglie della pianta che permette così la formazione di trecce composte da più agli. Queste trecce vengono lasciate ad asciugare qualche giorno in campo e poi continuano l’essiccatura naturale in ambienti ombreggiati e ventilati. ",kg
VERDURA,DA RADICE,Aglio di Voghiera DOP,"Denominazione di Origine Protetta – Si riconosce per il bulbo bianco, tondo e brillante. È formato da pochi spicchi grandi e regolari, ben serrati tra loro e avvolti in tuniche bianche o striate di rosa. Viene definito “aglio gentile”  per il suo aroma di  particolare freschezza e delicatezza.",kg
VERDURA,DA RADICE,Aglio Bianco Polesano DOP,"Denominazione di Origine Protetta - Varietà Avorio, che si contraddistingue per il colore bianco lucente, la forma del bulbo, l’elevata resa in sostanza secca che lo rende ben conservabile, e il particolare profilo aromatico, che risulta meno pungente e più persistente, con note gradevoli di erba tagliata di fresco o dolce fruttato.  ",kg
VERDURA,DA RADICE,Lampascioni,"Detti anche cipolla canina, cipollaccia turchina, cipollaccio col fiocco o giacinto dal pennacchio è una pianta erbacea diffusa nelle regioni mediterranee. Il bulbo globuloso, ricco di sali minerali e che cresce a 12-20 cm circa nel sottosuolo, è simile a una piccola cipolla di sapore amarognolo ma con retrogusto dolce e delicato, profumo dolciastro e aromatico. E' usato particolarmente in Basilicata e Puglia.  ",kg
VERDURA,DA RADICE,Rapa bianca tonda,"E' la radice della pianta e ha forme e colori diversi a seconda del periodo di raccolta e dalla zona di provenienza. Più o meno grossa, di forma tondeggiante o ovale. Ha buccia bianca che in alcune varietà assume nella parte superiore una tonalità violetta. La polpa è bianca o tendente al giallo, succosa e croccante, dal sapore dolciastro, e a volte con nota piccante. Si consuma cotta. Disponibile sul mercato d'estate e nel tardo autunno, dipende dalla varietà.",kg
VERDURA,DA RADICE,Radici amare di Chiavari (Radicce),"In Liguria sono conosciute come scorzonere, o con il sinonimo scorzamara. Si differenzia da altre radici in commercio per la forma conica di notevoli dimensioni e il colore bianco. Dal sapore amarognolo si consumano cotte. Disponibili sul mercato in autunno/inverno.",kg
VERDURA,DA RADICE,Rafano,"Detto anche Barbaforte o Cren, è una pianta erbacea perenne di cui si usa la radice che è molto carnosa. Può essere lunga fino a 50 cm e il suo diametro va dai 2 ai 7 cm. La buccia è brunastra, rugosa, la polpa molto soda, di colore bianco-crema. Il rafano contiene un olio che le conferisce un sapore piccante e un aroma particolarmente acre che ricorda quello della senape. Si consuma grattugiata. Sul mercato in autunno/inverno.",kg
VERDURA,ODORI,Salvia,"Ha foglie ruvide di colore verde argenteo, rivestite di peluria, di forma ovale oblunga, ma variabile a seconda della varietà. L'arbusto è sempreverde, aromatico. La varietà Purpurea, dal tipico colore porpora, è usata sia a scopo ornamentale che culinario.",Mazzetto
VERDURA,ODORI,Rosmarino,"Pianta arbustiva sempreverde che raggiunge altezze di 50–300 cm, con radici profonde, fibrose e resistenti, ancoranti; ha fusti legnosi di colore marrone chiaro, prostrati ascendenti o eretti, molto ramificati, i giovani rami pelosi di colore grigio-verde sono a sezione quadrangolare. Le foglie, persistenti e coriacee,sono addensate numerosissime sui rametti; di colore verde cupo lucente sulla pagina superiore e biancastre su quella inferiore per la presenza di peluria bianca.",Mazzetto
VERDURA,ODORI,Rosmarino prostrato,"Questa varietà ha il portamento dei rami ricadente e varia dal rosmarino comune per il profumo e l'aroma, più intensi, con un vago sentore di liquirizia. Ottimo per insaporire le vivande. ",Mazzetto
VERDURA,ODORI,Prezzemolo,"Pianta erbacea rustica che nel suo primo anno di vita produce un bel ciuffo di foglie decorative, profumate e commestibili, sorrette da robusti steli alti anche una quarantina di centimetri; quest'erba è perenne quando è spontanea, biennale se coltivata. ",Mazzetto
VERDURA,ODORI,Cerfoglio,"Questa erba aromatica è molto simile al prezzemolo, molto più delicata e non facilmente reperibile in Italia. Le foglioline del cerfoglio, finemente disegnate, sono di colore verde chiaro e si tingono di rosso in autunno. L'aroma ricorda il prezzemolo e l'anice. ",Mazzetto
VERDURA,ODORI,Ruta,"Si usano sia le foglie, raccolte da maggio ad agosto, che i semi. Ha un sapore penetrante e amaro, pungente e persistente, ma in piccole quantità e tritata costituisce un aroma insolito con pesce, uova, insalate. Le foglie vengono impiegate anche nelle preparazione di un aceto e olio particolari. Il suo più famoso uso è quello in infusione nella grappa.",Mazzetto
VERDURA,ODORI,Aneto,"Detto anche aneto odoroso o aneto puzzolente, è una pianta aromatica annuale dal profumo fresco e delicato, e un caratteristico odore tra il finocchio e l’anice. Se ne consumano sia le foglie che i semi.",Mazzetto
VERDURA,ODORI,Basilico,"Pianta erbacea annuale alta fino a 60 cm, con foglie opposte, ovali, lanceolate, di 2-5 centimetri di lunghezza. Il colore delle foglie varia dal verde pallido al verde intenso, oppure è viola o porpora in alcune varietà. Oltre al basilico comune, dal profumo intenso e foglie grandi, le varietà più note sono: greco, dalle foglie piccole e un retrogusto piccante, molto adatto ai cibi freschi; viola, dal colore scuro e un gusto delicato; genovese, conosciuto in tutto il mondo come ingrediente principale del pesto.",Mazzetto
VERDURA,ODORI,Basilico Genovese DOP,"Denominazione di Origine Protetta – Presenta foglie di forma ovale e convessa, di dimensioni medio-piccole e colore verde tenue. Il suo profumo è delicato e non presenta quella traccia di menta che invece si riscontra in altre varietà. ",Mazzetto
VERDURA,ODORI,Basilico Greco,"Esso si differenzia dalle altre varietà in quanto ha una struttura esterna che cresce a forma di cespuglio, le foglie sono molto verdi, piccole, allungate. Se paragonato al basilico che troviamo abitualmente sui banchi del mercato, ha un odore meno accentuato e decisamente più delicato. ",Mazzetto
VERDURA,ODORI,Menta,"Si utilizzano le foglie, che vengono raccolte a giugno, e le sommità fiorite, raccolte in luglio e agosto.Esistono circa 600 varietà di menta, differenti tra loro per caratteristiche e proprietà. ",Mazzetto
VERDURA,ODORI,Mentuccia romana,Questa pianta è indicata anche con i nomi comuni di nepitella e di poleggio. Si tratta di un piccolo arbusto aromatico molto comune in tutti gli incolti italiani. Indispensabile per i carciofi alla giudia.,Mazzetto
VERDURA,ODORI,Menta cioccolato,"Pianta perenne, molto resistente, infestante. Ha il fusto ascendente, le foglie opposte, semplici, lanceolate di color verde scuro. Il profumo e il sapore molto simile alla cioccolata. I fiori sono piccoli di color bianco o roseo-violacei. ",Mazzetto
VERDURA,ODORI,Menta glaciale,Erbacea perenne alta da 30; fioritura: tra fine giugno e agosto; fiori violetti o bianchi. Si utilizzano le foglie dall'aroma intenso al mentolo con piacevole “effetto freezing”.,Mazzetto
VERDURA,ODORI,Origano,"L'origano più saporito è quello che viene coltivato e raccolto in zone vicine al mare. Il sole, caldo e vento incidono sull'aroma della pianta. La fioritura dell’origano avviene da luglio fino a settembre-ottobre: la raccolta si effettua durante tutto l’anno staccando con delicatezza le foglioline sui rami o prelevando il rametto con tutti i fiori. Si usa prevalentemente essiccato.",Mazzetto
VERDURA,ODORI,Pimpinella,"Pianta selvatica chiamata anche Sanguisorba. Le foglioline di questa pianta hanno un sapore fresco che ricorda il gusto di noci e un retrogusto di cetriolo e anguria. Si consuma cruda. Ha proprietà aromatiche, astringenti, digestive e vulnerarie, cioè aiutano la cicatrizzazione del sangue, da qui la derivazione del nome Sanguisorba. ANICE",Mazzetto
VERDURA,ODORI,Erba cipollina,"Le foglie sono verdi, strette e cave; raggiungo un’altezza di circa 25 cm. La fioritura avviene durante l'estate, sull’apice dei fusti si formano delle infiorescenze a ombrello semisferche composte da piccoli fiori rosa-lilla, più raramente bianchi.L’erba cipollina è apprezzata in cucina per l’aroma che somiglia a quello della cipolla, può essere consumata fresca oppure tagliata a rondelle e conservata in congelatore dentro a sacchetti di plastica.",Mazzetto
VERDURA,ODORI,Maggiorana,"Pianta erbacea aromatica di cui si utilizzano le sommità fiorite e le foglie che emanano un gradito aroma canforato. Gustata fresca o essiccata, esalta pizze e insalate miste, aceti e oli aromatici, piatti estivi, zuppe, uova, carne o pietanze che richiedono un aroma deciso ma delicato.",Mazzetto
VERDURA,ODORI,Santoreggia,"Chiamata anche erba pepe, è una pianta aromatica molto utilizzata in Abruzzo e Molise, come i buona parte d’Italia, per insaporire sughi, legumi, carni bianche e verdure. Le parti della pianta che vengono utilizzate sono le foglie, che si caratterizzano per avere un aroma estremamente intenso, che somiglia molto a quello del timo; inoltre, vengono spesso impiegate anche le infiorescenze.",Mazzetto
VERDURA,ODORI,Alloro,"L’alloro è una pianta sempreverde robusta e aromatica. In cucina le lunghe e verdissime foglie dell’alloro si utilizzano prevalentemente secche – perché questo gli consente di sprigionare maggiormente il proprio aroma. Le foglie di alloro fresche si conservano per pochi giorni, ma possono facilmente essere essiccate in casa in modo da poter essere utilizzate tutto l’anno in cucina.",Mazzetto
VERDURA,ODORI,Melissa,"Le foglie hanno un aroma delicato e naturalmente dolce, che ricorda il limone e la menta, con un retrogusto rinfrescante. Si accosta con molte altre erbe aromatiche come il coriandolo fresco, di cui può mitigare l'aroma troppo intenso. Si usa fresca per aromatizzare gelati e tisane, piatti dolci e salati e anche aceti e oli aromatici, salse, zuppe, condimenti.",Mazzetto
VERDURA,ODORI,Coriandolo,"Pare che sia la pianta speziata più diffusa al mondo. Sia i verdi che i piccoli semi rotondi, chiamati mata, sono usati come cibo. In cucina si usano non solo semi e verdure, ma anche radici. I semi sono ampiamente usati in cottura, marinate, miscele di vari condimenti.",Mazzetto
VERDURA,ODORI,Timo,"Le foglie del timo sono piccole e allungate, di colore verde-grigio e ricoperte da una fitta peluria. Sono molte le varietà di questa pianta che si trovano con facilità sul mercato: il Timo Serpillo e una varietà dal profumo di limone. La fioritura del timo avviene tra la primavera e l’estate, con la comparsa di fiori di colore rosato. ",Mazzetto
VERDURA,ODORI,Peperoncino Rosso,"E' una bacca simile a un corno e di colore generalmente rosso acceso. Ve ne sono di molte varietà, più o meno piccanti. In base alla tipologia di peperoncino, il colore delle bacche mature può essere verde, rosso, giallo, arancione, viola, marrone e quasi nero. La dimensione è compresa tra 2 e 10 cm o più. Anche la forma può variare da: a corno, sferica, a cubo ecc. Cambiano anche l'aroma, il sapore e la piccantezza. Si consuma fresco o secco.",Mazzetto
VERDURA,ODORI,Peperoncino Rosso Tondo,"Di origine Calabrese, viene coltivato e apprezzato in tutta Italia. Questo peperoncino, moderatamente piccante e molto amabile al palato, consuma fresco. I frutti sono mediamente piccoli e dolci. Disponibile sul mercato da metà giugno fino a ottobre inoltrato, a seconda delle regioni e zone climatiche. Sono ideali da farcire, da conservare secchi o sott’olio, ripieni di tonno o acciughe, o da consumare freschi in antipasti misti.  ",Mazzetto
VERDURA,ODORI,Peperoncino Giallo,"I frutti sono tondeggianti, di circa 3 cm di diametro, che virano dal verde all’arancio a maturazione. Varietà di media piccantezza, adatta per ripieno con tonno. ",Mazzetto
VERDURA,ODORI,Peperoncino Habanero,"Si distingue dalle altre varietà della specie per il frutto, generalmente a forma di lanterna, che può presentarsi con la punta allungata in forma conica o rientrante, ed è proprio la forma del frutto la caratteristica che identifica la varietà. Le dimensioni vanno dai 2 cm fino agli 8 cm di lunghezza, e circa la metà in larghezza. Il colore è verde quando immaturo, mentre a maturazione può essere bianco, giallo, arancione, rosso, viola o marrone. E' molto piccante.",Mazzetto
VERDURA,ODORI,Peperoncino Nero,"Noto anche come Violetto Fuoco Nero o semplicemente Fuoco Nero. I frutti del Fuoco Nero crescono insolitamente verso l’alto, quelli più piccoli si trovano nella parte più alta della pianta e misurano al massimo 2 cm. La colorazione dei frutti varia dal nero al viola al rosso. I suoi frutti, scarni e senza polpa, non sono molto piccanti.",Mazzetto
VERDURA,DA TUBERO,Topinambur,"E' un tubero di colore rosso-violaceo o bianco e dalla polpa bianco-verdastra:  è globulosa, presenta una forma tozza ed è avvolta da una pellicola piuttosto rigida e chiara. L'involucro esterno che avvolge il tubero risulta molto digeribile, perciò è sconsigliato eliminarlo. Il sapore del ricorda molto quello del carciofo.  La pianta erbacea ha fiori gialli come grandi margherite. La raccolta dei tuberi avviene in autunno, in genere a partire dal mese di ottobre, dopo la fioritura della pianta, fino a tutto il mese di dicembre. Si consuma sia cotto che crudo.",kg
VERDURA,DA TUBERO,Patate novelle,"Sono le patate “fresche”, che non sono state conservate dall’agricoltore. Potremmo definirle ‘acerbe’, più piccole delle altre, con una polpa più morbida e una buccia poco resistente, semplice da rimuovere.Tendono anche ad essere piuttosto compatte, e questo impedisce che si spezzino in cottura.",kg
VERDURA,DA TUBERO,Patata Bianca,"Sono caratterizzate da avere una polpa molto chiara e particolarmente farinosa: questo significa che in cottura tendono a sformarsi, e questo rende difficile utilizzarle come contorni perché si spezzano. Particolarmente adatte per gnocchi, dolci, torte salate, sformati e purè.",kg
VERDURA,DA TUBERO,Patata Gialla,"Il colore più intenso è dovuto alla presenza di un quantitativo maggiore di ß-caroteni;  in realtà la differenza non è discriminante e se le acquistiamo conviene farlo soprattutto per le loro caratteristiche, che sono opposte a quelle delle patate bianche. Ottime sia fritte che al forno. Lessate trattengono molto bene l’umidità. ",kg
VERDURA,DA TUBERO,Patata Rossa,"Ha buccia rossa e pasta gialla. La buccia rossa è particolarmente ricca di sostanze nutritive,  per cui sarebbe bene mangiarle senza sbucciarle, arrosto o fritte, come da tradizione dei Paesi del Nord Europa. Prima di cucinarle bisogna spazzolarle con una paglietta di metallo da cucina e cuocerle con la buccia: la temperatura di cottura le sterilizza.",kg
VERDURA,DA TUBERO,Patata Viola PAT," Turchesa Il colore può oscillare tra il blu-violetto e l'indaco, con tonalità che si differenziano in base al caso specifico. La buccia è opaca e tende più al blue spento, è più coriacea e spessa e quindi è necessario eliminarla prima di mangiarle  la polpa assume un riflesso più brillante e si avvicina al porpora o al magenta scuro. Le forme e dimensioni sono simili alle altre patate utilizzate a scopo alimentare; odore e sapore ricordano vagamente le nocciole e castagne. Per questo, si prestano all'associazione con ingredienti tipicamente autunnali.",kg
VERDURA,DA TUBERO,Patata dolce americana bianca,"E' una grossa radice leggermente affusolata, dalla forma oblunga, con buccia liscia e dal colore beige. che oscilla tra il giallo, l'arancione, il rosso, il marrone, il viola e il beige. un po' carnosa, ricca di amido e dal sapore zuccherino che ricorda quello delle castagne. Per il suo sapore è spiccatamente dolciastro.  La radice tuberosa, ovvero la parte commestibile, è grossa, leggermente affusolata, La polpa della patata americana sfuma tra il beige, il bianco, il rosso, il rosa, il viola, il giallo, l'arancione e il viola. Quelle bianche o gialle (le più diffuse in Italia) sono meno dolci e succulente delle altre. ",kg
VERDURA,DA TUBERO,Patata dolce americana gialla,"E' una grossa radice leggermente affusolata, dalla forma oblunga, con buccia liscia e dal colore che oscilla tra il giallo e l'arancione. E' ricca di amido e dal sapore zuccherino che ricorda quello delle castagne. Si consuma cotta.",kg
VERDURA,DA TUBERO,Patata dolce americana rossa (Batata) ,"E' caratterizzata da una polpa più arancione e un da gusto più dolce rispetto alle altre patate dolci. Con un sapore a metà tra la zucca e la patata, ha un valore nutrizionale altissimo e proprietà antiossidanti, è versatile in cucina e può essere anche mangiata cruda.",kg
VERDURA,DA TUBERO,Scorzonera,"Questa radice cresce spontanea nel nord Italia, tuttavia viene anche coltivata, in particolare in Piemonte e in  Liguria. In cucina si utilizzano le radici, la cui raccolta si effettua da ottobre fino alla fine dell’inverno. Esistono tantissime specie di questa pianta, ma una delle più diffuse in Italia. In molte regioni è conosciuta anche come “Asparago d’inverno”. Sul mercato da ottobre a dicembre.",kg
VERDURA,DA TUBERO,Scorzobianca,"Il suo aspetto è simile a quello delle carote. La radice cotta è morbidissima, saporita, dolciastra e acquista un sapore che ricorda vagamente quello delle noci. Sono ricche di vitamine e sali minerali. Sono ottime anche impanate e fritte, al vapore o crude, tagliate a listarelle e aggiunte a insalate o paste fredde. Possono anche essere gustate bollite o alla griglia. Sul mercato da ottobre a dicembre. ",kg
VERDURA,DA TUBERO,Zenzero,"La radice si presenta come un rizoma carnoso, dal portamento strisciante, con ramificazioni irregolari. Ha una consistenza piuttosto dura e composta da un insieme di nodi: essi sono di colore marrone sulla parte esterna e giallo acceso all'interno. Si utilizza in particolare anche nella preparazione di liquori come aromatizzante, in cucina come spezia, per esaltare i sapori, sia crudo che cotto.",kg
VERDURA,DA TUBERO,Curcuma,"La radice è un grosso rizoma cilindrico, ramificato, di colore giallo o arancione, fortemente aromatico, che costituisce la parte di maggior interesse commerciale della pianta. I rizomi vengono bolliti ed essiccati al sole o in forno, e dopo vengono schiacciati in una polvere giallo-arancio. Il suo ingrediente attivo è la curcumina che ha un sapore terroso, amaro, piccante ed estremamente volatile, mentre il colore si conserva nel tempo. La curcuma è uno dei componenti fondamentali del curry.",kg
VERDURA,FUNGHI,Porcini,"Cappello emisferico carnoso. Gambo robusto carnoso, dapprima tozzo, poi slanciato, spesso ingrossato alla base, da bianco a color beige. Gusto e profumo marcati, carne soda.  Di solito nascono tra maggio e giugno, e diventano visibili nel bosco già ad agosto (se la stagione prevede le giuste piogge), anche se è tra settembre e ottobre che la loro presenza è all'apice. Possono pesare fino a 3 kg.",kg
VERDURA,FUNGHI,Finferli,"Detti anche Gallinacci, Galletti o Giallarelli. Cappello piccolo, irregolarissimo, ondulato, con margine rivoluto, di colore giallo-arancio o giallo-oro. Gambo dello stesso colore del cappello, tozzo, sottile alla base e molto corto. Cresce in estate-autunno, in numerosi esemplari disposti a circoli o gruppi nel terreno muschioso. Ha un caratteristico profumo di frutta fresca, come prugna, pesca o albicocca. Spesso viene conservato sott'olio oppure sott'aceto, buono anche fritto.",kg
VERDURA,FUNGHI,Pioppini,"Cappello dal colore  bruno-fulvo al nocciola di forma convessa, che tende a distendersi, di colore bruno chiaro, con tonalità appena più scura verso il centro, dimensione da 3 a 10 cm di diametro. Con il tempo umido si presenta un po' untuoso. Gambo cilindrico, slanciato e sottile, di color bianco-crema, può raggiungere un'altezza massima di 12 cm. Come aspetto molto simili ai Chiodini. Carne bianca e compatta, di colore più scuro sul gambo e alla base di questo. Odore difficile a descrivere, paragonabile al lievito o al ""profumo di vecchie botti da vino"", altri ancora al ""formaggio stagionato"". Disponibile dalla primavera ad autunno inoltrato. Possono essere ottimamente conservati sott'olio.",kg
VERDURA,FUNGHI,Prataioli,"Cappello globuloso con margini uniti al gambo 5-20 cm di diametro, di colore bianco o giallognolo; carne del cappello è soda e di colore bianco o tendente ad un colore rosso-vinaccia. Gambo cilindrico, solido, liscio, di colore bianco, affusolato alla base e presenta  un anello semplice di colore biancastro che è situato a metà dell’altezza del gambo.  Odore molto gradevole, aniseo o mandorlato. Disponibile dalla tarda primavera all'autunno. Si consumano sia cotti che crudi.",kg
VERDURA,FUNGHI,Pleurotus,"Detti anche  Geloni, Orecchioni o Fungo Ostrica. Cappello a forma di ostrica o di ventaglio di colore che varia da bruno-violaceo, bruno-rossiccio o grigio-biancastro, di diametro da 5 a 25 cm. Gambo irregolarmente cilindrico, talvolta assai corto, assottigliato alla base, di colore bianco o biancastro, alto 2–6 cm e spesso 1–2 cm. Carne molto compatta e soda. Odore di farina fresca o rosa. Disponibile dalla fine dell’autunno con l’arrivo dei primi freddi, fino all’inizio della primavera con l’arrivo dei primi caldi.",kg
VERDURA,FUNGHI,Champignon,"Cappello largo fino a 12 cm, a volte anche oltre, prima ovoideo, poi emisferico, infine convesso; molto carnoso e di color bianco (marrone in alcune varietà, note nei Paesi anglosassoni come chestnut mushrooms), spesso presenta squame brunastre; margine frequentemente fioccoso. Gambo tozzo e cilindrico, ingrossato alla base; di colore bianco. Carne di color bianco, leggermente virante al rosso se esposta all'aria. Odore gradevole, come di muschio o di erba stropicciata. Sul mercato tutto l'anno perchè coltivato. Si consumano sia cotti che crudi.",kg
VERDURA,FUNGHI,Chiodini,"Chiamato anche Famigliola Buona è un fungo che cresce sul legno, di solito nella stagione autunnale. Deve essere raccolto solo il cappello, perché il gambo è coriaceo e non si mangia. Cappello che va dai 3 ai 20 cm di diametro. Nella fase giovane del fungo è sferico, poi diviene convesso e poi pianeggiante con il più delle volte la parte intermedia superiore depressa come un largo solco circolare. Il colore è variabile a seconda dell'albero su cui cresce, da giallo miele a bruno scuro, da verdastro a rossiccio. Gambo slanciato, cilindrico o rigonfio. Carne soda nel cappello, coriacea nel gambo e brunastra. Odore di fieno bagnato. Sapore amaro, odore fungino. E' uno dei funghi più variabili che si conoscano in quanto  il colore del chiodino dipende dalla pianta ospite di cui si nutre oppure dal tipo di legno morto su cui si è sviluppato.E' una specie tossica se non prebollita. Eventualmente consumare solo gli esemplari giovani e freschi, privati del gambo coriaceo e quindi difficile da digerire. Prebollire in abbondante acqua per almeno 15-20 min. quindi scolare accuratamente e cucinare. Le tossine che possiede sono infatti idrosolubili e con la bollitura si diluiscono nell'acqua. Non congelare: sembra si amplificanono gli effetti delle sostanze tossiche idrosolubili presenti che, forse, non riescono a diluirsi adeguatamente.",kg
VERDURA,FUNGHI,Ovoli,"Detto anche Ovolo Buono. Cappello dal colore è giallo arancio o rosso arancio con tonalità calde, a volte variabile all'arancione con sfumature di rosso fino al giallo più o meno chiaro, di forma simile ad un uovo. La carne sotto al cappello è di colore giallo. Gambo cilindrico di colore giallo. Odore e sapore tenui. Si consuma sia cotto che crudo.",kg
VERDURA,FUNGHI,Morchella ,"Detta anche Spugnola. Cappello di forma alveolare che ricorda appunto il favo di un alveare o una spugna. La forma può essere ovale, a pera o a cono appuntito; il colore va dal marroncino all'olivastro passando per l'ocra.Gambo tozzo e biancastro che si presenta cavo nella parte interna. Le carni hanno un sapore dolciastro e sono di consistenza piuttosto fragile. Tutte le specie sono eduli solo dopo bollitura e velenose da crude.",kg
VERDURA,PRONTI E PULITI,Minestrone,,Porzione
VERDURA,PRONTI E PULITI,Puntarelle,,Porzione
VERDURA,PRONTI E PULITI,Insalata,,Porzione
VERDURA,PRONTI E PULITI,Misticanza,,Porzione
VERDURA,PRONTI E PULITI,Broccoletti,,Porzione
VERDURA,PRONTI E PULITI,Spinaci,,Porzione
VERDURA,PRONTI E PULITI,Fagiolini Corallo (Taccole),,Porzione
VERDURA,PRONTI E PULITI,Fagionini extra fini,,Porzione
VERDURA,PRONTI E PULITI,Bieta,,Porzione
VERDURA,PRONTI E PULITI,Carciofini,,Porzione
VERDURA,PRONTI E PULITI,Piselli freschi,,Porzione
VERDURA,LEGUMI SECCHI,Fagioli Azuki,"Il nome azuki, in giapponese,  vuol dire “piccolo fagiolo”. Sono di piccola taglia e colore marrone scuro lucido.",kg
VERDURA,LEGUMI SECCHI,Fagioli Borlotti,"Grandi e dall’intenso colore marrone rossiccio, sono la varietà più diffusa e dal sapore più deciso.",kg
VERDURA,LEGUMI SECCHI,Fagioli Cannellini,Presentano una forma sottile ed allungata e sono di colore bianco lucido e gusto delicato.,kg
VERDURA,LEGUMI SECCHI,Fagioli della Regina di Gorga,"Seme di forma irregolare, depressa, poligonale; dimensione medio-piccola; colore nocciola molto chiaro, più scuro in corrispondenza della cicatrice ilare, buccia sottilissima, di elevata digeribilità; ",kg
VERDURA,LEGUMI SECCHI,Fagioli Bianchi di Spagna,"Sono di grossa pezzatura, convessi e appiattititi, e di colore bianco intenso. Ricchi di polpa e buccia sottile sono particolarmente indicati per la preparazione fresche insalate estive.",kg
VERDURA,LEGUMI SECCHI,Fagioli con l'occhio,"Sono di piccola taglia, di colore bianco o crema, con un piccolo anello nel punto di attacco del bacello al seme. Si trovano in commercio essicati.",kg
VERDURA,LEGUMI SECCHI,Fagioli neri messicani,"E’ una qualità di legumi tipica del Sud America, taglia piccola e colore nero lucido, dal tipico sapore dolciastro",kg
VERDURA,LEGUMI SECCHI,Fagioli rossi,"Si adatta molto bene come contorno a piatti di carne, per piatti a base di riso, per salse piccanti o come piatto unico preparato con ricette tipiche dei paesi d’origine, ricche di spezie e verdure. Hanno un sapore dolciastro. ",kg
VERDURA,LEGUMI SECCHI,Ceci,"Si presentano più o meno tondeggianti ma dalla superficie leggermente bitorzoluta e più appuntita su un vertice, di colore bianco-beige, nero o verde. ",kg
VERDURA,LEGUMI SECCHI,Arachidi,,kg
VERDURA,LEGUMI SECCHI,Soia,,kg
VERDURA,LEGUMI SECCHI,Cicerchie,,kg
VERDURA,LEGUMI SECCHI,Fave,,kg
VERDURA,LEGUMI SECCHI,Lenticchie marroni,"La più conosciuta e diffusa, ha solitamente un diametro di circa 4 mm, ed è ricca di ferro. Particolarmente saporita, si presta particolarmente alle zuppe, ma anche  alle ricette a base di pasta o riso",kg
VERDURA,LEGUMI SECCHI,Lenticchie rosse,"Così chiamate anche se il loro colore tende più all’arancione (ed in alcuni casi al giallo), sono di piccole dimensione e decorticate, caratteristica che quindi consente loro di cuocere più velocemente. Hanno origine egiziana e si differenziano dalle altre tipologie per la consistenza tenera, rendendole ideali per contorni e zuppe, donando una piacevole consistenza alle creme grazie alla tenerezza che le fa sfaldare rapidamente in cottura.",kg
VERDURA,LEGUMI SECCHI,Lenticchie verdi,"Lenticchia di grandi dimensioni, ha un colore verde fieno, un sapore intenso e persistente e tiene molto bene la cottura. Indicata per le minestre, necessita di alcune ore di ammollo in acqua prima di poter essere cucinata. La più conosciuta è la “Gigante” di Altamura, coltivata in Puglia, ma è diffusa anche quella verdastra di Castelluccio di Norcia, che ha il marchio IGP, piccola e saporita, perfetta in insalata o in umido per il più classico degli abbinamenti con il cotechino o magari per preparare polpette vegetariane.",kg,,Lenticchie nere,"Piccole, lucide, scure e dalla forma perfetta, sono molto versatili in cucina, contraddistinte da un sapore dolce e aromatiche e particolarmente indicate come contorno per piatti a base di pesce, o magari in un’insalata o in una zuppa delicata. Non hanno bisogno di ammollo e si cuociono in tempi brevissimi: in acqua fredda sono pronte in circa venti minuti.",kg
VERDURA,LEGUMI SECCHI,Lupini,,kg
VERDURA,LEGUMI SECCHI,Lupini,,kg
VERDURA,LEGUMI SECCHI,Farro piccolo (monococco),"Il Farro Monococco è il più piccolo e il più antico. L’ipotesi più accreditata è che abbia avuto origine nell’antica Anatolia. Il suo nome si deve al fatto che le sue spighe piccole e fragili contengono generalmente un solo chicco. È un frumento a basso rendimento, adatto a suoli poveri e aridi, con un ciclo vegetativo molto lungo, sviluppandosi in undici mesi.",kg
VERDURA,LEGUMI SECCHI,Farro piccolo (Dicocco),"Il Farro Dicocco è una varietà più produttiva della monococco e la più diffusa in Italia. Il più famoso è il farro della Garfagnana, zona nota anche per la farina di neccio. Ma la sua area di origine si ritiene sia tra il Mediterraneo e il Caucaso. Così viene chiamato, perché la spiga appiattita generalmente presenta due chicchi.",kg
VERDURA,LEGUMI SECCHI,Farro grande (Spelta),"Originario del Caspio, Il farro spelta deriva dall’incrocio tra il farro Dicocco e l’ Aegilops Squarrosa, una graminacea selvatica. Più simile al grano tenero, la spiga cilindrica e allungata contiene da due a tre chicchi.",kg
